Testbench/ALU_TB/alu_wave.vcd
$date
	Fri Dec 26 15:00:01 2025
$end
$version
	Icarus Verilog
$end
$timescale
	1ps
$end
$scope module tb_alu $end
$var wire 2 ! stage_counter [1:0] $end
$var wire 1 " EX_accept $end
$var wire 1 # ALU_zero $end
$var wire 1 $ ALU_ready $end
$var wire 1 % ALU_overflow $end
$var wire 32 & ALU_out [31:0] $end
$var wire 1 ' ALU_err $end
$var wire 1 ( ALU_con_met $end
$var reg 32 ) ALU_dat1 [31:0] $end
$var reg 32 * ALU_dat2 [31:0] $end
$var reg 6 + Instruction_from_CU [5:0] $end
$var reg 1 , dat_ready $end
$var reg 1 - reset $end
$var reg 1 . soc_clk $end
$scope module dut $end
$var wire 1 - EX_reset $end
$var wire 6 / Instruction_to_ALU [5:0] $end
$var wire 32 0 imm_data [31:0] $end
$var wire 32 1 rs1_data [31:0] $end
$var wire 32 2 rs2_data [31:0] $end
$var wire 1 . soc_clk $end
$var wire 1 # zero_flag $end
$var wire 2 3 stage_counter [1:0] $end
$var wire 1 $ result_ready $end
$var wire 32 4 result_data [31:0] $end
$var wire 1 % overflow_flag $end
$var wire 1 ' error_flag $end
$var wire 1 ( condition_met_flag $end
$var wire 1 " EX_accept $end
$scope module ALU $end
$var wire 32 5 ALU_dat1 [31:0] $end
$var wire 32 6 ALU_dat2 [31:0] $end
$var wire 6 7 Instruction_from_CU [5:0] $end
$var wire 1 - reset $end
$var wire 1 . soc_clk $end
$var wire 32 8 Shifter_out [31:0] $end
$var wire 32 9 LogOp_out [31:0] $end
$var wire 32 : Comparator_out [31:0] $end
$var wire 1 ; Comparator_con_met $end
$var wire 1 < AddSub_overflow $end
$var wire 32 = AddSub_out [31:0] $end
$var wire 1 " ALU_accept $end
$var reg 1 ( ALU_con_met $end
$var reg 1 ' ALU_err $end
$var reg 32 > ALU_out [31:0] $end
$var reg 1 % ALU_overflow $end
$var reg 1 $ ALU_ready $end
$var reg 2 ? ALU_result_counter [1:0] $end
$var reg 1 # ALU_zero $end
$var reg 5 @ Instruction_to_ALU [4:0] $end
$var reg 32 A reg_ALU_dat1 [31:0] $end
$var reg 32 B reg_ALU_dat2 [31:0] $end
$scope module AS $end
$var wire 32 C ALU_dat1 [31:0] $end
$var wire 32 D ALU_dat2 [31:0] $end
$var wire 5 E Instruction_to_ALU [4:0] $end
$var wire 32 F RA_dat1 [31:0] $end
$var wire 1 G reset $end
$var wire 1 H soc_clk $end
$var wire 32 I TC_dat2 [31:0] $end
$var wire 32 J RA_dat2 [31:0] $end
$var wire 1 < AddSub_overflow $end
$var wire 32 K AddSub_out [31:0] $end
$var wire 33 L AddSub_int [32:0] $end
$scope module RA $end
$var wire 32 M A [31:0] $end
$var wire 32 N B [31:0] $end
$var wire 32 O c [31:0] $end
$var wire 33 P SUM [32:0] $end
$scope begin FA_BITS[0] $end
$var parameter 2 Q i $end
$scope begin genblk1 $end
$scope module FA $end
$var wire 1 R a $end
$var wire 1 S ab $end
$var wire 1 T axb $end
$var wire 1 U axbcin $end
$var wire 1 V b $end
$var wire 1 W cin $end
$var wire 1 X cout $end
$var wire 1 Y sum $end
$upscope $end
$upscope $end
$upscope $end
$scope begin FA_BITS[1] $end
$var parameter 2 Z i $end
$scope begin genblk1 $end
$scope module FA $end
$var wire 1 [ a $end
$var wire 1 \ ab $end
$var wire 1 ] axb $end
$var wire 1 ^ axbcin $end
$var wire 1 _ b $end
$var wire 1 ` cin $end
$var wire 1 a cout $end
$var wire 1 b sum $end
$upscope $end
$upscope $end
$upscope $end
$scope begin FA_BITS[2] $end
$var parameter 3 c i $end
$scope begin genblk1 $end
$scope module FA $end
$var wire 1 d a $end
$var wire 1 e ab $end
$var wire 1 f axb $end
$var wire 1 g axbcin $end
$var wire 1 h b $end
$var wire 1 i cin $end
$var wire 1 j cout $end
$var wire 1 k sum $end
$upscope $end
$upscope $end
$upscope $end
$scope begin FA_BITS[3] $end
$var parameter 3 l i $end
$scope begin genblk1 $end
$scope module FA $end
$var wire 1 m a $end
$var wire 1 n ab $end
$var wire 1 o axb $end
$var wire 1 p axbcin $end
$var wire 1 q b $end
$var wire 1 r cin $end
$var wire 1 s cout $end
$var wire 1 t sum $end
$upscope $end
$upscope $end
$upscope $end
$scope begin FA_BITS[4] $end
$var parameter 4 u i $end
$scope begin genblk1 $end
$scope module FA $end
$var wire 1 v a $end
$var wire 1 w ab $end
$var wire 1 x axb $end
$var wire 1 y axbcin $end
$var wire 1 z b $end
$var wire 1 { cin $end
$var wire 1 | cout $end
$var wire 1 } sum $end
$upscope $end
$upscope $end
$upscope $end
$scope begin FA_BITS[5] $end
$var parameter 4 ~ i $end
$scope begin genblk1 $end
$scope module FA $end
$var wire 1 !" a $end
$var wire 1 "" ab $end
$var wire 1 #" axb $end
$var wire 1 $" axbcin $end
$var wire 1 %" b $end
$var wire 1 &" cin $end
$var wire 1 '" cout $end
$var wire 1 (" sum $end
$upscope $end
$upscope $end
$upscope $end
$scope begin FA_BITS[6] $end
$var parameter 4 )" i $end
$scope begin genblk1 $end
$scope module FA $end
$var wire 1 *" a $end
$var wire 1 +" ab $end
$var wire 1 ," axb $end
$var wire 1 -" axbcin $end
$var wire 1 ." b $end
$var wire 1 /" cin $end
$var wire 1 0" cout $end
$var wire 1 1" sum $end
$upscope $end
$upscope $end
$upscope $end
$scope begin FA_BITS[7] $end
$var parameter 4 2" i $end
$scope begin genblk1 $end
$scope module FA $end
$var wire 1 3" a $end
$var wire 1 4" ab $end
$var wire 1 5" axb $end
$var wire 1 6" axbcin $end
$var wire 1 7" b $end
$var wire 1 8" cin $end
$var wire 1 9" cout $end
$var wire 1 :" sum $end
$upscope $end
$upscope $end
$upscope $end
$scope begin FA_BITS[8] $end
$var parameter 5 ;" i $end
$scope begin genblk1 $end
$scope module FA $end
$var wire 1 <" a $end
$var wire 1 =" ab $end
$var wire 1 >" axb $end
$var wire 1 ?" axbcin $end
$var wire 1 @" b $end
$var wire 1 A" cin $end
$var wire 1 B" cout $end
$var wire 1 C" sum $end
$upscope $end
$upscope $end
$upscope $end
$scope begin FA_BITS[9] $end
$var parameter 5 D" i $end
$scope begin genblk1 $end
$scope module FA $end
$var wire 1 E" a $end
$var wire 1 F" ab $end
$var wire 1 G" axb $end
$var wire 1 H" axbcin $end
$var wire 1 I" b $end
$var wire 1 J" cin $end
$var wire 1 K" cout $end
$var wire 1 L" sum $end
$upscope $end
$upscope $end
$upscope $end
$scope begin FA_BITS[10] $end
$var parameter 5 M" i $end
$scope begin genblk1 $end
$scope module FA $end
$var wire 1 N" a $end
$var wire 1 O" ab $end
$var wire 1 P" axb $end
$var wire 1 Q" axbcin $end
$var wire 1 R" b $end
$var wire 1 S" cin $end
$var wire 1 T" cout $end
$var wire 1 U" sum $end
$upscope $end
$upscope $end
$upscope $end
$scope begin FA_BITS[11] $end
$var parameter 5 V" i $end
$scope begin genblk1 $end
$scope module FA $end
$var wire 1 W" a $end
$var wire 1 X" ab $end
$var wire 1 Y" axb $end
$var wire 1 Z" axbcin $end
$var wire 1 [" b $end
$var wire 1 \" cin $end
$var wire 1 ]" cout $end
$var wire 1 ^" sum $end
$upscope $end
$upscope $end
$upscope $end
$scope begin FA_BITS[12] $end
$var parameter 5 _" i $end
$scope begin genblk1 $end
$scope module FA $end
$var wire 1 `" a $end
$var wire 1 a" ab $end
$var wire 1 b" axb $end
$var wire 1 c" axbcin $end
$var wire 1 d" b $end
$var wire 1 e" cin $end
$var wire 1 f" cout $end
$var wire 1 g" sum $end
$upscope $end
$upscope $end
$upscope $end
$scope begin FA_BITS[13] $end
$var parameter 5 h" i $end
$scope begin genblk1 $end
$scope module FA $end
$var wire 1 i" a $end
$var wire 1 j" ab $end
$var wire 1 k" axb $end
$var wire 1 l" axbcin $end
$var wire 1 m" b $end
$var wire 1 n" cin $end
$var wire 1 o" cout $end
$var wire 1 p" sum $end
$upscope $end
$upscope $end
$upscope $end
$scope begin FA_BITS[14] $end
$var parameter 5 q" i $end
$scope begin genblk1 $end
$scope module FA $end
$var wire 1 r" a $end
$var wire 1 s" ab $end
$var wire 1 t" axb $end
$var wire 1 u" axbcin $end
$var wire 1 v" b $end
$var wire 1 w" cin $end
$var wire 1 x" cout $end
$var wire 1 y" sum $end
$upscope $end
$upscope $end
$upscope $end
$scope begin FA_BITS[15] $end
$var parameter 5 z" i $end
$scope begin genblk1 $end
$scope module FA $end
$var wire 1 {" a $end
$var wire 1 |" ab $end
$var wire 1 }" axb $end
$var wire 1 ~" axbcin $end
$var wire 1 !# b $end
$var wire 1 "# cin $end
$var wire 1 ## cout $end
$var wire 1 $# sum $end
$upscope $end
$upscope $end
$upscope $end
$scope begin FA_BITS[16] $end
$var parameter 6 %# i $end
$scope begin genblk1 $end
$scope module FA $end
$var wire 1 &# a $end
$var wire 1 '# ab $end
$var wire 1 (# axb $end
$var wire 1 )# axbcin $end
$var wire 1 *# b $end
$var wire 1 +# cin $end
$var wire 1 ,# cout $end
$var wire 1 -# sum $end
$upscope $end
$upscope $end
$upscope $end
$scope begin FA_BITS[17] $end
$var parameter 6 .# i $end
$scope begin genblk1 $end
$scope module FA $end
$var wire 1 /# a $end
$var wire 1 0# ab $end
$var wire 1 1# axb $end
$var wire 1 2# axbcin $end
$var wire 1 3# b $end
$var wire 1 4# cin $end
$var wire 1 5# cout $end
$var wire 1 6# sum $end
$upscope $end
$upscope $end
$upscope $end
$scope begin FA_BITS[18] $end
$var parameter 6 7# i $end
$scope begin genblk1 $end
$scope module FA $end
$var wire 1 8# a $end
$var wire 1 9# ab $end
$var wire 1 :# axb $end
$var wire 1 ;# axbcin $end
$var wire 1 <# b $end
$var wire 1 =# cin $end
$var wire 1 ># cout $end
$var wire 1 ?# sum $end
$upscope $end
$upscope $end
$upscope $end
$scope begin FA_BITS[19] $end
$var parameter 6 @# i $end
$scope begin genblk1 $end
$scope module FA $end
$var wire 1 A# a $end
$var wire 1 B# ab $end
$var wire 1 C# axb $end
$var wire 1 D# axbcin $end
$var wire 1 E# b $end
$var wire 1 F# cin $end
$var wire 1 G# cout $end
$var wire 1 H# sum $end
$upscope $end
$upscope $end
$upscope $end
$scope begin FA_BITS[20] $end
$var parameter 6 I# i $end
$scope begin genblk1 $end
$scope module FA $end
$var wire 1 J# a $end
$var wire 1 K# ab $end
$var wire 1 L# axb $end
$var wire 1 M# axbcin $end
$var wire 1 N# b $end
$var wire 1 O# cin $end
$var wire 1 P# cout $end
$var wire 1 Q# sum $end
$upscope $end
$upscope $end
$upscope $end
$scope begin FA_BITS[21] $end
$var parameter 6 R# i $end
$scope begin genblk1 $end
$scope module FA $end
$var wire 1 S# a $end
$var wire 1 T# ab $end
$var wire 1 U# axb $end
$var wire 1 V# axbcin $end
$var wire 1 W# b $end
$var wire 1 X# cin $end
$var wire 1 Y# cout $end
$var wire 1 Z# sum $end
$upscope $end
$upscope $end
$upscope $end
$scope begin FA_BITS[22] $end
$var parameter 6 [# i $end
$scope begin genblk1 $end
$scope module FA $end
$var wire 1 \# a $end
$var wire 1 ]# ab $end
$var wire 1 ^# axb $end
$var wire 1 _# axbcin $end
$var wire 1 `# b $end
$var wire 1 a# cin $end
$var wire 1 b# cout $end
$var wire 1 c# sum $end
$upscope $end
$upscope $end
$upscope $end
$scope begin FA_BITS[23] $end
$var parameter 6 d# i $end
$scope begin genblk1 $end
$scope module FA $end
$var wire 1 e# a $end
$var wire 1 f# ab $end
$var wire 1 g# axb $end
$var wire 1 h# axbcin $end
$var wire 1 i# b $end
$var wire 1 j# cin $end
$var wire 1 k# cout $end
$var wire 1 l# sum $end
$upscope $end
$upscope $end
$upscope $end
$scope begin FA_BITS[24] $end
$var parameter 6 m# i $end
$scope begin genblk1 $end
$scope module FA $end
$var wire 1 n# a $end
$var wire 1 o# ab $end
$var wire 1 p# axb $end
$var wire 1 q# axbcin $end
$var wire 1 r# b $end
$var wire 1 s# cin $end
$var wire 1 t# cout $end
$var wire 1 u# sum $end
$upscope $end
$upscope $end
$upscope $end
$scope begin FA_BITS[25] $end
$var parameter 6 v# i $end
$scope begin genblk1 $end
$scope module FA $end
$var wire 1 w# a $end
$var wire 1 x# ab $end
$var wire 1 y# axb $end
$var wire 1 z# axbcin $end
$var wire 1 {# b $end
$var wire 1 |# cin $end
$var wire 1 }# cout $end
$var wire 1 ~# sum $end
$upscope $end
$upscope $end
$upscope $end
$scope begin FA_BITS[26] $end
$var parameter 6 !$ i $end
$scope begin genblk1 $end
$scope module FA $end
$var wire 1 "$ a $end
$var wire 1 #$ ab $end
$var wire 1 $$ axb $end
$var wire 1 %$ axbcin $end
$var wire 1 &$ b $end
$var wire 1 '$ cin $end
$var wire 1 ($ cout $end
$var wire 1 )$ sum $end
$upscope $end
$upscope $end
$upscope $end
$scope begin FA_BITS[27] $end
$var parameter 6 *$ i $end
$scope begin genblk1 $end
$scope module FA $end
$var wire 1 +$ a $end
$var wire 1 ,$ ab $end
$var wire 1 -$ axb $end
$var wire 1 .$ axbcin $end
$var wire 1 /$ b $end
$var wire 1 0$ cin $end
$var wire 1 1$ cout $end
$var wire 1 2$ sum $end
$upscope $end
$upscope $end
$upscope $end
$scope begin FA_BITS[28] $end
$var parameter 6 3$ i $end
$scope begin genblk1 $end
$scope module FA $end
$var wire 1 4$ a $end
$var wire 1 5$ ab $end
$var wire 1 6$ axb $end
$var wire 1 7$ axbcin $end
$var wire 1 8$ b $end
$var wire 1 9$ cin $end
$var wire 1 :$ cout $end
$var wire 1 ;$ sum $end
$upscope $end
$upscope $end
$upscope $end
$scope begin FA_BITS[29] $end
$var parameter 6 <$ i $end
$scope begin genblk1 $end
$scope module FA $end
$var wire 1 =$ a $end
$var wire 1 >$ ab $end
$var wire 1 ?$ axb $end
$var wire 1 @$ axbcin $end
$var wire 1 A$ b $end
$var wire 1 B$ cin $end
$var wire 1 C$ cout $end
$var wire 1 D$ sum $end
$upscope $end
$upscope $end
$upscope $end
$scope begin FA_BITS[30] $end
$var parameter 6 E$ i $end
$scope begin genblk1 $end
$scope module FA $end
$var wire 1 F$ a $end
$var wire 1 G$ ab $end
$var wire 1 H$ axb $end
$var wire 1 I$ axbcin $end
$var wire 1 J$ b $end
$var wire 1 K$ cin $end
$var wire 1 L$ cout $end
$var wire 1 M$ sum $end
$upscope $end
$upscope $end
$upscope $end
$scope begin FA_BITS[31] $end
$var parameter 6 N$ i $end
$scope begin genblk1 $end
$scope module FA $end
$var wire 1 O$ a $end
$var wire 1 P$ ab $end
$var wire 1 Q$ axb $end
$var wire 1 R$ axbcin $end
$var wire 1 S$ b $end
$var wire 1 T$ cin $end
$var wire 1 U$ cout $end
$var wire 1 V$ sum $end
$upscope $end
$upscope $end
$upscope $end
$upscope $end
$scope module TC $end
$var wire 32 W$ in [31:0] $end
$var wire 32 X$ out [31:0] $end
$upscope $end
$upscope $end
$scope module C $end
$var wire 32 Y$ ALU_dat1 [31:0] $end
$var wire 32 Z$ ALU_dat2 [31:0] $end
$var wire 5 [$ Instruction_to_ALU [4:0] $end
$var reg 1 ; Comparator_con_met $end
$var reg 32 \$ Comparator_out [31:0] $end
$upscope $end
$scope module LO $end
$var wire 32 ]$ ALU_dat1 [31:0] $end
$var wire 32 ^$ ALU_dat2 [31:0] $end
$var wire 5 _$ Instruction_to_ALU [4:0] $end
$var wire 1 `$ dat_ready $end
$var wire 1 a$ reset $end
$var wire 1 b$ soc_clk $end
$var reg 32 c$ LogOp_out [31:0] $end
$upscope $end
$scope module S $end
$var wire 32 d$ ALU_dat1 [31:0] $end
$var wire 32 e$ ALU_dat2 [31:0] $end
$var wire 5 f$ Instruction_to_ALU [4:0] $end
$var reg 32 g$ Shifter_out [31:0] $end
$upscope $end
$upscope $end
$upscope $end
$scope task testsequence $end
$var reg 1 h$ exp_con $end
$var reg 32 i$ exp_out [31:0] $end
$var reg 1 j$ exp_ovf $end
$var reg 1 k$ exp_zero $end
$var reg 32 l$ in1 [31:0] $end
$var reg 32 m$ in2 [31:0] $end
$var reg 6 n$ instr [5:0] $end
$var reg 256 o$ name [255:0] $end
$upscope $end
$upscope $end
$enddefinitions $end
$comment Show the parameter values. $end
$dumpall
b11111 N$
b11110 E$
b11101 <$
b11100 3$
b11011 *$
b11010 !$
b11001 v#
b11000 m#
b10111 d#
b10110 [#
b10101 R#
b10100 I#
b10011 @#
b10010 7#
b10001 .#
b10000 %#
b1111 z"
b1110 q"
b1101 h"
b1100 _"
b1011 V"
b1010 M"
b1001 D"
b1000 ;"
b111 2"
b110 )"
b101 ~
b100 u
b11 l
b10 c
b1 Z
b0 Q
$end
#0
$dumpvars
bx o$
bx n$
bx m$
bx l$
xk$
xj$
bx i$
xh$
bx g$
bx f$
bx e$
bx d$
bx c$
zb$
za$
z`$
bx _$
bx ^$
bx ]$
bx \$
bx [$
bx Z$
bx Y$
bx X$
bx W$
xV$
xU$
xT$
xS$
xR$
xQ$
xP$
xO$
xM$
xL$
xK$
xJ$
xI$
xH$
xG$
xF$
xD$
xC$
xB$
xA$
x@$
x?$
x>$
x=$
x;$
x:$
x9$
x8$
x7$
x6$
x5$
x4$
x2$
x1$
x0$
x/$
x.$
x-$
x,$
x+$
x)$
x($
x'$
x&$
x%$
x$$
x#$
x"$
x~#
x}#
x|#
x{#
xz#
xy#
xx#
xw#
xu#
xt#
xs#
xr#
xq#
xp#
xo#
xn#
xl#
xk#
xj#
xi#
xh#
xg#
xf#
xe#
xc#
xb#
xa#
x`#
x_#
x^#
x]#
x\#
xZ#
xY#
xX#
xW#
xV#
xU#
xT#
xS#
xQ#
xP#
xO#
xN#
xM#
xL#
xK#
xJ#
xH#
xG#
xF#
xE#
xD#
xC#
xB#
xA#
x?#
x>#
x=#
x<#
x;#
x:#
x9#
x8#
x6#
x5#
x4#
x3#
x2#
x1#
x0#
x/#
x-#
x,#
x+#
x*#
x)#
x(#
x'#
x&#
x$#
x##
x"#
x!#
x~"
x}"
x|"
x{"
xy"
xx"
xw"
xv"
xu"
xt"
xs"
xr"
xp"
xo"
xn"
xm"
xl"
xk"
xj"
xi"
xg"
xf"
xe"
xd"
xc"
xb"
xa"
x`"
x^"
x]"
x\"
x["
xZ"
xY"
xX"
xW"
xU"
xT"
xS"
xR"
xQ"
xP"
xO"
xN"
xL"
xK"
xJ"
xI"
xH"
xG"
xF"
xE"
xC"
xB"
xA"
x@"
x?"
x>"
x="
x<"
x:"
x9"
x8"
x7"
x6"
x5"
x4"
x3"
x1"
x0"
x/"
x."
x-"
x,"
x+"
x*"
x("
x'"
x&"
x%"
x$"
x#"
x""
x!"
x}
x|
x{
xz
xy
xx
xw
xv
xt
xs
xr
xq
xp
xo
xn
xm
xk
xj
xi
xh
xg
xf
xe
xd
xb
xa
x`
x_
x^
x]
x\
x[
xY
xX
0W
xV
0U
xT
xS
xR
bx P
bx O
bx N
bx M
bx L
bx K
bx J
bx I
zH
zG
bx F
bx E
bx D
bx C
bx B
bx A
bx @
bx ?
bx >
bx =
x<
x;
bx :
bx 9
bx 8
b0 7
b0 6
b0 5
bx 4
bx 3
b0 2
b0 1
b0 0
b0 /
0.
1-
0,
b0 +
b0 *
b0 )
x(
x'
bx &
x%
x$
x#
x"
bx !
$end
#5000
0k
0t
0}
0("
01"
0:"
0C"
0L"
0U"
0^"
0g"
0p"
0y"
0$#
0-#
06#
0?#
0H#
0Q#
0Z#
0c#
0l#
0u#
0~#
0)$
02$
0;$
0D$
0M$
0V$
0b
0i
0r
0{
0&"
0/"
08"
0A"
0J"
0S"
0\"
0e"
0n"
0w"
0"#
0+#
04#
0=#
0F#
0O#
0X#
0a#
0j#
0s#
0|#
0'$
00$
09$
0B$
0K$
0T$
b0 =
b0 K
0`
0a
0j
0s
0|
0'"
00"
09"
0B"
0K"
0T"
0]"
0f"
0o"
0x"
0##
0,#
05#
0>#
0G#
0P#
0Y#
0b#
0k#
0t#
0}#
0($
01$
0:$
0C$
0L$
0U$
b0 L
b0 P
0Y
b0 O
0X
0^
0g
0p
0y
0$"
0-"
06"
0?"
0H"
0Q"
0Z"
0c"
0l"
0u"
0~"
0)#
02#
0;#
0D#
0M#
0V#
0_#
0h#
0q#
0z#
0%$
0.$
07$
0@$
0I$
0R$
0T
0S
0]
0\
0f
0e
0o
0n
0x
0w
0#"
0""
0,"
0+"
05"
04"
0>"
0="
0G"
0F"
0P"
0O"
0Y"
0X"
0b"
0a"
0k"
0j"
0t"
0s"
0}"
0|"
0(#
0'#
01#
00#
0:#
09#
0C#
0B#
0L#
0K#
0U#
0T#
0^#
0]#
0g#
0f#
0p#
0o#
0y#
0x#
0$$
0#$
0-$
0,$
06$
05$
0?$
0>$
0H$
0G$
0Q$
0P$
0V
0_
0h
0q
0z
0%"
0."
07"
0@"
0I"
0R"
0["
0d"
0m"
0v"
0!#
0*#
03#
0<#
0E#
0N#
0W#
0`#
0i#
0r#
0{#
0&$
0/$
08$
0A$
0J$
0S$
b0 I
b0 X$
0R
0[
0d
0m
0v
0!"
0*"
03"
0<"
0E"
0N"
0W"
0`"
0i"
0r"
0{"
0&#
0/#
08#
0A#
0J#
0S#
0\#
0e#
0n#
0w#
0"$
0+$
04$
0=$
0F$
0O$
b0 J
b0 N
0<
b0 8
b0 g$
b0 9
b0 c$
b0 :
b0 \$
0;
0'
b0 B
b0 D
b0 W$
b0 Z$
b0 ^$
b0 e$
b0 F
b0 M
b0 A
b0 C
b0 Y$
b0 ]$
b0 d$
b10000 @
b10000 E
b10000 [$
b10000 _$
b10000 f$
0(
0#
0%
b0 &
b0 4
b0 >
0$
1"
b0 !
b0 3
b0 ?
1.
#10000
0.
#15000
0-
1.
#20000
0.
#25000
b11011 +
b11011 /
b11011 7
b101 *
b101 2
b101 6
b1010 )
b1010 1
b1010 5
0"
b1 !
b1 3
b1 ?
0h$
0j$
0k$
b1111 i$
b11011 n$
b101 m$
b1010 l$
b1000001010001000100010000100000001010000011000100110000001010110011010100101001 o$
1.
#30000
0.
#35000
1Y
1k
1T
1f
b1111 =
b1111 K
1V
1h
1b
b1111 L
b1111 P
1t
b101 J
b101 N
1]
1o
b11111111111111111111111111111011 I
b11111111111111111111111111111011 X$
1[
1m
b10 !
b10 3
b10 ?
b110 @
b110 E
b110 [$
b110 _$
b110 f$
b101 B
b101 D
b101 W$
b101 Z$
b101 ^$
b101 e$
b1010 F
b1010 M
b1010 A
b1010 C
b1010 Y$
b1010 ]$
b1010 d$
1.
#40000
0.
#45000
1$
b1111 &
b1111 4
b1111 >
b11 !
b11 3
b11 ?
1.
#50000
0.
#55000
1"
b0 !
b0 3
b0 ?
0$
1.
#60000
0.
#65000
b11100 +
b11100 /
b11100 7
0"
b1 !
b1 3
b1 ?
b101 i$
b11100 n$
b1010011010101010100001000100000001010000011000100110000001011010011010100101001 o$
1.
#70000
0.
#75000
1U$
1R$
1T$
1L$
1I$
1K$
1C$
1@$
1B$
1:$
17$
19$
11$
1.$
10$
1($
1%$
1'$
1}#
1z#
1|#
1t#
1q#
1s#
1k#
1h#
1j#
1b#
1_#
1a#
1Y#
1V#
1X#
1P#
1M#
1O#
1G#
1D#
1F#
1>#
1;#
1=#
15#
12#
14#
1,#
1)#
1+#
1##
1~"
1"#
1x"
1u"
1w"
1o"
1l"
1n"
1f"
1c"
1e"
1]"
1Z"
1\"
1T"
1Q"
1S"
1K"
1H"
1J"
1B"
1?"
1A"
19"
16"
18"
10"
1-"
1/"
1'"
1$"
1&"
1|
1y
1i
1{
b101 =
b101 K
0b
1a
1k
0t
b11111111111111111111111111111010 O
1s
0}
0("
01"
0:"
0C"
0L"
0U"
0^"
0g"
0p"
0y"
0$#
0-#
06#
0?#
0H#
0Q#
0Z#
0c#
0l#
0u#
0~#
0)$
02$
0;$
0D$
0M$
b100000000000000000000000000000101 L
b100000000000000000000000000000101 P
0V$
0]
1\
0f
0o
1n
1x
1#"
1,"
15"
1>"
1G"
1P"
1Y"
1b"
1k"
1t"
1}"
1(#
11#
1:#
1C#
1L#
1U#
1^#
1g#
1p#
1y#
1$$
1-$
16$
1?$
1H$
1Q$
1_
0h
1q
1z
1%"
1."
17"
1@"
1I"
1R"
1["
1d"
1m"
1v"
1!#
1*#
13#
1<#
1E#
1N#
1W#
1`#
1i#
1r#
1{#
1&$
1/$
18$
1A$
1J$
1S$
b11111111111111111111111111111011 J
b11111111111111111111111111111011 N
b10 !
b10 3
b10 ?
b111 @
b111 E
b111 [$
b111 _$
b111 f$
1.
#80000
0.
#85000
1$
b101 &
b101 4
b101 >
b11 !
b11 3
b11 ?
1.
#90000
0.
#95000
1"
b0 !
b0 3
b0 ?
0$
1.
#100000
0.
#105000
b1010 *
b1010 2
b1010 6
b101 )
b101 1
b101 5
0"
b1 !
b1 3
b1 ?
b11111111111111111111111111111011 i$
b1010 m$
b101 l$
b1010011010101010100001000100000001010000011010100101101001100010011000000101001 o$
1.
#110000
0.
#115000
0U$
1V$
0R$
0T$
0L$
1M$
0I$
0K$
0C$
1D$
0@$
0B$
0:$
1;$
07$
09$
01$
12$
0.$
00$
0($
1)$
0%$
0'$
0}#
1~#
0z#
0|#
0t#
1u#
0q#
0s#
0k#
1l#
0h#
0j#
0b#
1c#
0_#
0a#
0Y#
1Z#
0V#
0X#
0P#
1Q#
0M#
0O#
0G#
1H#
0D#
0F#
0>#
1?#
0;#
0=#
05#
16#
02#
04#
0,#
1-#
0)#
0+#
0##
1$#
0~"
0"#
0x"
1y"
0u"
0w"
0o"
1p"
0l"
0n"
0f"
1g"
0c"
0e"
0]"
1^"
0Z"
0\"
0T"
1U"
0Q"
0S"
0K"
1L"
0H"
0J"
0B"
1C"
0?"
0A"
09"
1:"
06"
08"
00"
11"
0-"
0/"
0'"
1("
0$"
0&"
0|
0^
1r
1}
0y
1e
0`
0i
1j
b11111111111111111111111111111011 =
b11111111111111111111111111111011 K
0{
0V
1h
0q
1Y
0X
1b
0a
0k
0g
b11111111111111111111111111111011 L
b11111111111111111111111111111011 P
1t
b100 O
0s
b11111111111111111111111111110110 J
b11111111111111111111111111110110 N
1T
0S
1]
0\
0f
0o
0n
b11111111111111111111111111110110 I
b11111111111111111111111111110110 X$
1R
0[
1d
0m
b10 !
b10 3
b10 ?
b1010 B
b1010 D
b1010 W$
b1010 Z$
b1010 ^$
b1010 e$
b101 F
b101 M
b101 A
b101 C
b101 Y$
b101 ]$
b101 d$
1.
#120000
0.
#125000
1$
b11111111111111111111111111111011 &
b11111111111111111111111111111011 4
b11111111111111111111111111111011 >
b11 !
b11 3
b11 ?
1.
#130000
0.
#135000
1"
b0 !
b0 3
b0 ?
0$
1.
#140000
0.
#145000
b11101 +
b11101 /
b11101 7
b10 *
b10 2
b10 6
b1 )
b1 1
b1 5
0"
b1 !
b1 3
b1 ?
b100 i$
b11101 n$
b10 m$
b1 l$
b1010011010011000100110000100000001010000011000100111100001111000011001000101001 o$
1.
#150000
0.
#155000
0t
0b
0}
0("
01"
0:"
0C"
0L"
0U"
0^"
0g"
0p"
0y"
0$#
0-#
06#
0?#
0H#
0Q#
0Z#
0c#
0l#
0u#
0~#
0)$
02$
0;$
0D$
0M$
0V$
b1 =
b1 K
0r
0]
0x
0#"
0,"
05"
0>"
0G"
0P"
0Y"
0b"
0k"
0t"
0}"
0(#
01#
0:#
0C#
0L#
0U#
0^#
0g#
0p#
0y#
0$$
0-$
06$
0?$
0H$
0Q$
b1 L
b1 P
0k
b0 O
0j
0_
0h
0z
0%"
0."
07"
0@"
0I"
0R"
0["
0d"
0m"
0v"
0!#
0*#
03#
0<#
0E#
0N#
0W#
0`#
0i#
0r#
0{#
0&$
0/$
08$
0A$
0J$
0S$
0f
0e
b0 J
b0 N
b11111111111111111111111111111110 I
b11111111111111111111111111111110 X$
0d
b100 8
b100 g$
b10 !
b10 3
b10 ?
b1000 @
b1000 E
b1000 [$
b1000 _$
b1000 f$
b10 B
b10 D
b10 W$
b10 Z$
b10 ^$
b10 e$
b1 F
b1 M
b1 A
b1 C
b1 Y$
b1 ]$
b1 d$
1.
#160000
0.
#165000
1$
b100 &
b100 4
b100 >
b11 !
b11 3
b11 ?
1.
#170000
0.
#175000
1"
b0 !
b0 3
b0 ?
0$
1.
#180000
0.
#185000
b100001 +
b100001 /
b100001 7
b1000 )
b1000 1
b1000 5
0"
b1 !
b1 3
b1 ?
b10 i$
b100001 n$
b1000 l$
b1010011010100100100110000100000001010000011100000111110001111100011001000101001 o$
1.
#190000
0.
#195000
b1000 =
b1000 K
0Y
b1000 L
b1000 P
1t
0T
1o
0R
1m
b10 8
b10 g$
b10 !
b10 3
b10 ?
b1100 @
b1100 E
b1100 [$
b1100 _$
b1100 f$
b1000 F
b1000 M
b1000 A
b1000 C
b1000 Y$
b1000 ]$
b1000 d$
1.
#200000
0.
#205000
1$
b10 &
b10 4
b10 >
b11 !
b11 3
b11 ?
1.
#210000
0.
#215000
1"
b0 !
b0 3
b0 ?
0$
1.
#220000
0.
#225000
b100010 +
b100010 /
b100010 7
b11111111111111111111111111111000 )
b11111111111111111111111111111000 1
b11111111111111111111111111111000 5
0"
b1 !
b1 3
b1 ?
b11111111111111111111111111111110 i$
b100010 n$
b11111111111111111111111111111000 l$
b10100110101001001000001001000000010100000101101001110000011111000111110001111100011001000101001 o$
1.
#230000
0.
