Testbench/alu_wave.vcd
$date
	Thu Dec 25 21:58:13 2025
$end
$version
	Icarus Verilog
$end
$timescale
	1ps
$end
$scope module tb_alu $end
$var wire 1 ! ALU_zero $end
$var wire 1 " ALU_ready $end
$var wire 1 # ALU_overflow $end
$var wire 32 $ ALU_out [31:0] $end
$var wire 1 % ALU_err $end
$var wire 1 & ALU_con_met $end
$var reg 32 ' ALU_dat1 [31:0] $end
$var reg 32 ( ALU_dat2 [31:0] $end
$var reg 6 ) Instruction_from_CU [5:0] $end
$var reg 1 * dat_ready $end
$var reg 1 + reset $end
$var reg 1 , soc_clk $end
$scope module dut $end
$var wire 32 - ALU_dat1 [31:0] $end
$var wire 32 . ALU_dat2 [31:0] $end
$var wire 6 / Instruction_from_CU [5:0] $end
$var wire 1 * dat_ready $end
$var wire 1 + reset $end
$var wire 1 , soc_clk $end
$var wire 32 0 Shifter_out [31:0] $end
$var wire 32 1 LogOp_out [31:0] $end
$var wire 32 2 Comparator_out [31:0] $end
$var wire 1 3 Comparator_con_met $end
$var wire 1 4 AddSub_overflow $end
$var wire 32 5 AddSub_out [31:0] $end
$var reg 1 & ALU_con_met $end
$var reg 1 % ALU_err $end
$var reg 32 6 ALU_out [31:0] $end
$var reg 1 # ALU_overflow $end
$var reg 1 " ALU_ready $end
$var reg 2 7 ALU_result_counter [1:0] $end
$var reg 1 ! ALU_zero $end
$var reg 5 8 Instruction_to_ALU [4:0] $end
$var reg 32 9 reg_ALU_dat1 [31:0] $end
$var reg 32 : reg_ALU_dat2 [31:0] $end
$scope module AS $end
$var wire 32 ; ALU_dat1 [31:0] $end
$var wire 32 < ALU_dat2 [31:0] $end
$var wire 1 4 AddSub_overflow $end
$var wire 5 = Instruction_to_ALU [4:0] $end
$var wire 1 * dat_ready $end
$var wire 1 + reset $end
$var wire 1 , soc_clk $end
$var wire 32 > TC_dat2 [31:0] $end
$var wire 32 ? AddSub_out [31:0] $end
$var wire 33 @ AddSub_int [32:0] $end
$var reg 32 A RA_dat1 [31:0] $end
$var reg 32 B RA_dat2 [31:0] $end
$scope module RA $end
$var wire 32 C A [31:0] $end
$var wire 32 D B [31:0] $end
$var wire 32 E c [31:0] $end
$var wire 33 F SUM [32:0] $end
$scope begin FA_BITS[0] $end
$var parameter 2 G i $end
$scope begin genblk1 $end
$scope module FA $end
$var wire 1 H a $end
$var wire 1 I ab $end
$var wire 1 J axb $end
$var wire 1 K axbcin $end
$var wire 1 L b $end
$var wire 1 M cin $end
$var wire 1 N cout $end
$var wire 1 O sum $end
$upscope $end
$upscope $end
$upscope $end
$scope begin FA_BITS[1] $end
$var parameter 2 P i $end
$scope begin genblk1 $end
$scope module FA $end
$var wire 1 Q a $end
$var wire 1 R ab $end
$var wire 1 S axb $end
$var wire 1 T axbcin $end
$var wire 1 U b $end
$var wire 1 V cin $end
$var wire 1 W cout $end
$var wire 1 X sum $end
$upscope $end
$upscope $end
$upscope $end
$scope begin FA_BITS[2] $end
$var parameter 3 Y i $end
$scope begin genblk1 $end
$scope module FA $end
$var wire 1 Z a $end
$var wire 1 [ ab $end
$var wire 1 \ axb $end
$var wire 1 ] axbcin $end
$var wire 1 ^ b $end
$var wire 1 _ cin $end
$var wire 1 ` cout $end
$var wire 1 a sum $end
$upscope $end
$upscope $end
$upscope $end
$scope begin FA_BITS[3] $end
$var parameter 3 b i $end
$scope begin genblk1 $end
$scope module FA $end
$var wire 1 c a $end
$var wire 1 d ab $end
$var wire 1 e axb $end
$var wire 1 f axbcin $end
$var wire 1 g b $end
$var wire 1 h cin $end
$var wire 1 i cout $end
$var wire 1 j sum $end
$upscope $end
$upscope $end
$upscope $end
$scope begin FA_BITS[4] $end
$var parameter 4 k i $end
$scope begin genblk1 $end
$scope module FA $end
$var wire 1 l a $end
$var wire 1 m ab $end
$var wire 1 n axb $end
$var wire 1 o axbcin $end
$var wire 1 p b $end
$var wire 1 q cin $end
$var wire 1 r cout $end
$var wire 1 s sum $end
$upscope $end
$upscope $end
$upscope $end
$scope begin FA_BITS[5] $end
$var parameter 4 t i $end
$scope begin genblk1 $end
$scope module FA $end
$var wire 1 u a $end
$var wire 1 v ab $end
$var wire 1 w axb $end
$var wire 1 x axbcin $end
$var wire 1 y b $end
$var wire 1 z cin $end
$var wire 1 { cout $end
$var wire 1 | sum $end
$upscope $end
$upscope $end
$upscope $end
$scope begin FA_BITS[6] $end
$var parameter 4 } i $end
$scope begin genblk1 $end
$scope module FA $end
$var wire 1 ~ a $end
$var wire 1 !" ab $end
$var wire 1 "" axb $end
$var wire 1 #" axbcin $end
$var wire 1 $" b $end
$var wire 1 %" cin $end
$var wire 1 &" cout $end
$var wire 1 '" sum $end
$upscope $end
$upscope $end
$upscope $end
$scope begin FA_BITS[7] $end
$var parameter 4 (" i $end
$scope begin genblk1 $end
$scope module FA $end
$var wire 1 )" a $end
$var wire 1 *" ab $end
$var wire 1 +" axb $end
$var wire 1 ," axbcin $end
$var wire 1 -" b $end
$var wire 1 ." cin $end
$var wire 1 /" cout $end
$var wire 1 0" sum $end
$upscope $end
$upscope $end
$upscope $end
$scope begin FA_BITS[8] $end
$var parameter 5 1" i $end
$scope begin genblk1 $end
$scope module FA $end
$var wire 1 2" a $end
$var wire 1 3" ab $end
$var wire 1 4" axb $end
$var wire 1 5" axbcin $end
$var wire 1 6" b $end
$var wire 1 7" cin $end
$var wire 1 8" cout $end
$var wire 1 9" sum $end
$upscope $end
$upscope $end
$upscope $end
$scope begin FA_BITS[9] $end
$var parameter 5 :" i $end
$scope begin genblk1 $end
$scope module FA $end
$var wire 1 ;" a $end
$var wire 1 <" ab $end
$var wire 1 =" axb $end
$var wire 1 >" axbcin $end
$var wire 1 ?" b $end
$var wire 1 @" cin $end
$var wire 1 A" cout $end
$var wire 1 B" sum $end
$upscope $end
$upscope $end
$upscope $end
$scope begin FA_BITS[10] $end
$var parameter 5 C" i $end
$scope begin genblk1 $end
$scope module FA $end
$var wire 1 D" a $end
$var wire 1 E" ab $end
$var wire 1 F" axb $end
$var wire 1 G" axbcin $end
$var wire 1 H" b $end
$var wire 1 I" cin $end
$var wire 1 J" cout $end
$var wire 1 K" sum $end
$upscope $end
$upscope $end
$upscope $end
$scope begin FA_BITS[11] $end
$var parameter 5 L" i $end
$scope begin genblk1 $end
$scope module FA $end
$var wire 1 M" a $end
$var wire 1 N" ab $end
$var wire 1 O" axb $end
$var wire 1 P" axbcin $end
$var wire 1 Q" b $end
$var wire 1 R" cin $end
$var wire 1 S" cout $end
$var wire 1 T" sum $end
$upscope $end
$upscope $end
$upscope $end
$scope begin FA_BITS[12] $end
$var parameter 5 U" i $end
$scope begin genblk1 $end
$scope module FA $end
$var wire 1 V" a $end
$var wire 1 W" ab $end
$var wire 1 X" axb $end
$var wire 1 Y" axbcin $end
$var wire 1 Z" b $end
$var wire 1 [" cin $end
$var wire 1 \" cout $end
$var wire 1 ]" sum $end
$upscope $end
$upscope $end
$upscope $end
$scope begin FA_BITS[13] $end
$var parameter 5 ^" i $end
$scope begin genblk1 $end
$scope module FA $end
$var wire 1 _" a $end
$var wire 1 `" ab $end
$var wire 1 a" axb $end
$var wire 1 b" axbcin $end
$var wire 1 c" b $end
$var wire 1 d" cin $end
$var wire 1 e" cout $end
$var wire 1 f" sum $end
$upscope $end
$upscope $end
$upscope $end
$scope begin FA_BITS[14] $end
$var parameter 5 g" i $end
$scope begin genblk1 $end
$scope module FA $end
$var wire 1 h" a $end
$var wire 1 i" ab $end
$var wire 1 j" axb $end
$var wire 1 k" axbcin $end
$var wire 1 l" b $end
$var wire 1 m" cin $end
$var wire 1 n" cout $end
$var wire 1 o" sum $end
$upscope $end
$upscope $end
$upscope $end
$scope begin FA_BITS[15] $end
$var parameter 5 p" i $end
$scope begin genblk1 $end
$scope module FA $end
$var wire 1 q" a $end
$var wire 1 r" ab $end
$var wire 1 s" axb $end
$var wire 1 t" axbcin $end
$var wire 1 u" b $end
$var wire 1 v" cin $end
$var wire 1 w" cout $end
$var wire 1 x" sum $end
$upscope $end
$upscope $end
$upscope $end
$scope begin FA_BITS[16] $end
$var parameter 6 y" i $end
$scope begin genblk1 $end
$scope module FA $end
$var wire 1 z" a $end
$var wire 1 {" ab $end
$var wire 1 |" axb $end
$var wire 1 }" axbcin $end
$var wire 1 ~" b $end
$var wire 1 !# cin $end
$var wire 1 "# cout $end
$var wire 1 ## sum $end
$upscope $end
$upscope $end
$upscope $end
$scope begin FA_BITS[17] $end
$var parameter 6 $# i $end
$scope begin genblk1 $end
$scope module FA $end
$var wire 1 %# a $end
$var wire 1 &# ab $end
$var wire 1 '# axb $end
$var wire 1 (# axbcin $end
$var wire 1 )# b $end
$var wire 1 *# cin $end
$var wire 1 +# cout $end
$var wire 1 ,# sum $end
$upscope $end
$upscope $end
$upscope $end
$scope begin FA_BITS[18] $end
$var parameter 6 -# i $end
$scope begin genblk1 $end
$scope module FA $end
$var wire 1 .# a $end
$var wire 1 /# ab $end
$var wire 1 0# axb $end
$var wire 1 1# axbcin $end
$var wire 1 2# b $end
$var wire 1 3# cin $end
$var wire 1 4# cout $end
$var wire 1 5# sum $end
$upscope $end
$upscope $end
$upscope $end
$scope begin FA_BITS[19] $end
$var parameter 6 6# i $end
$scope begin genblk1 $end
$scope module FA $end
$var wire 1 7# a $end
$var wire 1 8# ab $end
$var wire 1 9# axb $end
$var wire 1 :# axbcin $end
$var wire 1 ;# b $end
$var wire 1 <# cin $end
$var wire 1 =# cout $end
$var wire 1 ># sum $end
$upscope $end
$upscope $end
$upscope $end
$scope begin FA_BITS[20] $end
$var parameter 6 ?# i $end
$scope begin genblk1 $end
$scope module FA $end
$var wire 1 @# a $end
$var wire 1 A# ab $end
$var wire 1 B# axb $end
$var wire 1 C# axbcin $end
$var wire 1 D# b $end
$var wire 1 E# cin $end
$var wire 1 F# cout $end
$var wire 1 G# sum $end
$upscope $end
$upscope $end
$upscope $end
$scope begin FA_BITS[21] $end
$var parameter 6 H# i $end
$scope begin genblk1 $end
$scope module FA $end
$var wire 1 I# a $end
$var wire 1 J# ab $end
$var wire 1 K# axb $end
$var wire 1 L# axbcin $end
$var wire 1 M# b $end
$var wire 1 N# cin $end
$var wire 1 O# cout $end
$var wire 1 P# sum $end
$upscope $end
$upscope $end
$upscope $end
$scope begin FA_BITS[22] $end
$var parameter 6 Q# i $end
$scope begin genblk1 $end
$scope module FA $end
$var wire 1 R# a $end
$var wire 1 S# ab $end
$var wire 1 T# axb $end
$var wire 1 U# axbcin $end
$var wire 1 V# b $end
$var wire 1 W# cin $end
$var wire 1 X# cout $end
$var wire 1 Y# sum $end
$upscope $end
$upscope $end
$upscope $end
$scope begin FA_BITS[23] $end
$var parameter 6 Z# i $end
$scope begin genblk1 $end
$scope module FA $end
$var wire 1 [# a $end
$var wire 1 \# ab $end
$var wire 1 ]# axb $end
$var wire 1 ^# axbcin $end
$var wire 1 _# b $end
$var wire 1 `# cin $end
$var wire 1 a# cout $end
$var wire 1 b# sum $end
$upscope $end
$upscope $end
$upscope $end
$scope begin FA_BITS[24] $end
$var parameter 6 c# i $end
$scope begin genblk1 $end
$scope module FA $end
$var wire 1 d# a $end
$var wire 1 e# ab $end
$var wire 1 f# axb $end
$var wire 1 g# axbcin $end
$var wire 1 h# b $end
$var wire 1 i# cin $end
$var wire 1 j# cout $end
$var wire 1 k# sum $end
$upscope $end
$upscope $end
$upscope $end
$scope begin FA_BITS[25] $end
$var parameter 6 l# i $end
$scope begin genblk1 $end
$scope module FA $end
$var wire 1 m# a $end
$var wire 1 n# ab $end
$var wire 1 o# axb $end
$var wire 1 p# axbcin $end
$var wire 1 q# b $end
$var wire 1 r# cin $end
$var wire 1 s# cout $end
$var wire 1 t# sum $end
$upscope $end
$upscope $end
$upscope $end
$scope begin FA_BITS[26] $end
$var parameter 6 u# i $end
$scope begin genblk1 $end
$scope module FA $end
$var wire 1 v# a $end
$var wire 1 w# ab $end
$var wire 1 x# axb $end
$var wire 1 y# axbcin $end
$var wire 1 z# b $end
$var wire 1 {# cin $end
$var wire 1 |# cout $end
$var wire 1 }# sum $end
$upscope $end
$upscope $end
$upscope $end
$scope begin FA_BITS[27] $end
$var parameter 6 ~# i $end
$scope begin genblk1 $end
$scope module FA $end
$var wire 1 !$ a $end
$var wire 1 "$ ab $end
$var wire 1 #$ axb $end
$var wire 1 $$ axbcin $end
$var wire 1 %$ b $end
$var wire 1 &$ cin $end
$var wire 1 '$ cout $end
$var wire 1 ($ sum $end
$upscope $end
$upscope $end
$upscope $end
$scope begin FA_BITS[28] $end
$var parameter 6 )$ i $end
$scope begin genblk1 $end
$scope module FA $end
$var wire 1 *$ a $end
$var wire 1 +$ ab $end
$var wire 1 ,$ axb $end
$var wire 1 -$ axbcin $end
$var wire 1 .$ b $end
$var wire 1 /$ cin $end
$var wire 1 0$ cout $end
$var wire 1 1$ sum $end
$upscope $end
$upscope $end
$upscope $end
$scope begin FA_BITS[29] $end
$var parameter 6 2$ i $end
$scope begin genblk1 $end
$scope module FA $end
$var wire 1 3$ a $end
$var wire 1 4$ ab $end
$var wire 1 5$ axb $end
$var wire 1 6$ axbcin $end
$var wire 1 7$ b $end
$var wire 1 8$ cin $end
$var wire 1 9$ cout $end
$var wire 1 :$ sum $end
$upscope $end
$upscope $end
$upscope $end
$scope begin FA_BITS[30] $end
$var parameter 6 ;$ i $end
$scope begin genblk1 $end
$scope module FA $end
$var wire 1 <$ a $end
$var wire 1 =$ ab $end
$var wire 1 >$ axb $end
$var wire 1 ?$ axbcin $end
$var wire 1 @$ b $end
$var wire 1 A$ cin $end
$var wire 1 B$ cout $end
$var wire 1 C$ sum $end
$upscope $end
$upscope $end
$upscope $end
$scope begin FA_BITS[31] $end
$var parameter 6 D$ i $end
$scope begin genblk1 $end
$scope module FA $end
$var wire 1 E$ a $end
$var wire 1 F$ ab $end
$var wire 1 G$ axb $end
$var wire 1 H$ axbcin $end
$var wire 1 I$ b $end
$var wire 1 J$ cin $end
$var wire 1 K$ cout $end
$var wire 1 L$ sum $end
$upscope $end
$upscope $end
$upscope $end
$upscope $end
$scope module TC $end
$var wire 32 M$ in [31:0] $end
$var wire 32 N$ out [31:0] $end
$upscope $end
$upscope $end
$scope module C $end
$var wire 32 O$ ALU_dat1 [31:0] $end
$var wire 32 P$ ALU_dat2 [31:0] $end
$var wire 5 Q$ Instruction_to_ALU [4:0] $end
$var wire 1 * dat_ready $end
$var wire 1 + reset $end
$var wire 1 , soc_clk $end
$var reg 1 3 Comparator_con_met $end
$var reg 32 R$ Comparator_out [31:0] $end
$upscope $end
$scope module LO $end
$var wire 32 S$ ALU_dat1 [31:0] $end
$var wire 32 T$ ALU_dat2 [31:0] $end
$var wire 5 U$ Instruction_to_ALU [4:0] $end
$var wire 1 * dat_ready $end
$var wire 1 + reset $end
$var wire 1 , soc_clk $end
$var reg 32 V$ LogOp_out [31:0] $end
$upscope $end
$scope module S $end
$var wire 32 W$ ALU_dat1 [31:0] $end
$var wire 32 X$ ALU_dat2 [31:0] $end
$var wire 5 Y$ Instruction_to_ALU [4:0] $end
$var wire 1 * dat_ready $end
$var wire 1 + reset $end
$var wire 1 , soc_clk $end
$var reg 32 Z$ Shifter_out [31:0] $end
$upscope $end
$upscope $end
$scope task testsequence $end
$var reg 1 [$ exp_con $end
$var reg 32 \$ exp_out [31:0] $end
$var reg 1 ]$ exp_ovf $end
$var reg 1 ^$ exp_zero $end
$var reg 32 _$ in1 [31:0] $end
$var reg 32 `$ in2 [31:0] $end
$var reg 6 a$ instr [5:0] $end
$var reg 256 b$ name [255:0] $end
$upscope $end
$upscope $end
$enddefinitions $end
$comment Show the parameter values. $end
$dumpall
b11111 D$
b11110 ;$
b11101 2$
b11100 )$
b11011 ~#
b11010 u#
b11001 l#
b11000 c#
b10111 Z#
b10110 Q#
b10101 H#
b10100 ?#
b10011 6#
b10010 -#
b10001 $#
b10000 y"
b1111 p"
b1110 g"
b1101 ^"
b1100 U"
b1011 L"
b1010 C"
b1001 :"
b1000 1"
b111 ("
b110 }
b101 t
b100 k
b11 b
b10 Y
b1 P
b0 G
$end
#0
$dumpvars
bx b$
bx a$
bx `$
bx _$
x^$
x]$
bx \$
x[$
bx Z$
bx Y$
bx X$
bx W$
bx V$
bx U$
bx T$
bx S$
b0 R$
bx Q$
bx P$
bx O$
bx N$
bx M$
xL$
xK$
xJ$
xI$
xH$
xG$
xF$
xE$
xC$
xB$
xA$
x@$
x?$
x>$
x=$
x<$
x:$
x9$
x8$
x7$
x6$
x5$
x4$
x3$
x1$
x0$
x/$
x.$
x-$
x,$
x+$
x*$
x($
x'$
x&$
x%$
x$$
x#$
x"$
x!$
x}#
x|#
x{#
xz#
xy#
xx#
xw#
xv#
xt#
xs#
xr#
xq#
xp#
xo#
xn#
xm#
xk#
xj#
xi#
xh#
xg#
xf#
xe#
xd#
xb#
xa#
x`#
x_#
x^#
x]#
x\#
x[#
xY#
xX#
xW#
xV#
xU#
xT#
xS#
xR#
xP#
xO#
xN#
xM#
xL#
xK#
xJ#
xI#
xG#
xF#
xE#
xD#
xC#
xB#
xA#
x@#
x>#
x=#
x<#
x;#
x:#
x9#
x8#
x7#
x5#
x4#
x3#
x2#
x1#
x0#
x/#
x.#
x,#
x+#
x*#
x)#
x(#
x'#
x&#
x%#
x##
x"#
x!#
x~"
x}"
x|"
x{"
xz"
xx"
xw"
xv"
xu"
xt"
xs"
xr"
xq"
xo"
xn"
xm"
xl"
xk"
xj"
xi"
xh"
xf"
xe"
xd"
xc"
xb"
xa"
x`"
x_"
x]"
x\"
x["
xZ"
xY"
xX"
xW"
xV"
xT"
xS"
xR"
xQ"
xP"
xO"
xN"
xM"
xK"
xJ"
xI"
xH"
xG"
xF"
xE"
xD"
xB"
xA"
x@"
x?"
x>"
x="
x<"
x;"
x9"
x8"
x7"
x6"
x5"
x4"
x3"
x2"
x0"
x/"
x."
x-"
x,"
x+"
x*"
x)"
x'"
x&"
x%"
x$"
x#"
x""
x!"
x~
x|
x{
xz
xy
xx
xw
xv
xu
xs
xr
xq
xp
xo
xn
xm
xl
xj
xi
xh
xg
xf
xe
xd
xc
xa
x`
x_
x^
x]
x\
x[
xZ
xX
xW
xV
xU
xT
xS
xR
xQ
xO
xN
0M
xL
0K
xJ
xI
xH
bx F
bx E
bx D
bx C
bx B
bx A
bx @
bx ?
bx >
bx =
bx <
bx ;
bx :
bx 9
bx 8
bx 7
bx 6
bx 5
x4
03
b0 2
bx 1
bx 0
b0 /
b0 .
b0 -
0,
1+
0*
b0 )
b0 (
b0 '
x&
x%
bx $
x#
x"
x!
$end
#5000
0a
0j
0s
0|
0'"
00"
09"
0B"
0K"
0T"
0]"
0f"
0o"
0x"
0##
0,#
05#
0>#
0G#
0P#
0Y#
0b#
0k#
0t#
0}#
0($
01$
0:$
0C$
0L$
0X
0_
0h
0q
0z
0%"
0."
07"
0@"
0I"
0R"
0["
0d"
0m"
0v"
0!#
0*#
03#
0<#
0E#
0N#
0W#
0`#
0i#
0r#
0{#
0&$
0/$
08$
0A$
0J$
b0 5
b0 ?
0V
0W
0`
0i
0r
0{
0&"
0/"
08"
0A"
0J"
0S"
0\"
0e"
0n"
0w"
0"#
0+#
04#
0=#
0F#
0O#
0X#
0a#
0j#
0s#
0|#
0'$
00$
09$
0B$
0K$
04
b0 @
b0 F
0O
b0 E
0N
0T
0]
0f
0o
0x
0#"
0,"
05"
0>"
0G"
0P"
0Y"
0b"
0k"
0t"
0}"
0(#
01#
0:#
0C#
0L#
0U#
0^#
0g#
0p#
0y#
0$$
0-$
06$
0?$
0H$
0J
0I
0S
0R
0\
0[
0e
0d
0n
0m
0w
0v
0""
0!"
0+"
0*"
04"
03"
0="
0<"
0F"
0E"
0O"
0N"
0X"
0W"
0a"
0`"
0j"
0i"
0s"
0r"
0|"
0{"
0'#
0&#
00#
0/#
09#
08#
0B#
0A#
0K#
0J#
0T#
0S#
0]#
0\#
0f#
0e#
0o#
0n#
0x#
0w#
0#$
0"$
0,$
0+$
05$
04$
0>$
0=$
0G$
0F$
0L
0U
0^
0g
0p
0y
0$"
0-"
06"
0?"
0H"
0Q"
0Z"
0c"
0l"
0u"
0~"
0)#
02#
0;#
0D#
0M#
0V#
0_#
0h#
0q#
0z#
0%$
0.$
07$
0@$
0I$
0H
0Q
0Z
0c
0l
0u
0~
0)"
02"
0;"
0D"
0M"
0V"
0_"
0h"
0q"
0z"
0%#
0.#
07#
0@#
0I#
0R#
0[#
0d#
0m#
0v#
0!$
0*$
03$
0<$
0E$
b0 >
b0 N$
b0 B
b0 D
b0 A
b0 C
b0 1
b0 V$
b0 0
b0 Z$
0%
b0 :
b0 <
b0 M$
b0 P$
b0 T$
b0 X$
b0 9
b0 ;
b0 O$
b0 S$
b0 W$
b10000 8
b10000 =
b10000 Q$
b10000 U$
b10000 Y$
0&
0!
0#
b0 $
b0 6
0"
b0 7
1,
#10000
0,
#15000
0+
1,
#20000
0,
#25000
b11011 )
b11011 /
b101 (
b101 .
b1010 '
b1010 -
0[$
0]$
0^$
b1111 \$
b11011 a$
b101 `$
b1010 _$
b1000001010001000100010000100000001010000011000100110000001010110011010100101001 b$
1,
#30000
0,
#35000
b11111111111111111111111111111011 >
b11111111111111111111111111111011 N$
b1 7
b110 8
b110 =
b110 Q$
b110 U$
b110 Y$
b101 :
b101 <
b101 M$
b101 P$
b101 T$
b101 X$
b1010 9
b1010 ;
b1010 O$
b1010 S$
b1010 W$
1*
1,
#40000
0,
#45000
b1111 5
b1111 ?
1O
1a
1X
b1111 @
b1111 F
1j
1J
1\
1S
1e
1L
1^
1Q
1c
b101 B
b101 D
b1010 A
b1010 C
b10 7
0*
1,
#50000
0,
#55000
1"
b1111 $
b1111 6
b11 7
1,
#60000
0,
#65000
b0 7
0"
1,
#70000
0,
#75000
1,
#80000
0,
#85000
b11100 )
b11100 /
b101 \$
b11100 a$
b1010011010101010100001000100000001010000011000100110000001011010011010100101001 b$
1,
#90000
0,
#95000
b1 7
b111 8
b111 =
b111 Q$
b111 U$
b111 Y$
1*
1,
#100000
0,
#105000
1K$
1H$
1J$
1B$
1?$
1A$
19$
16$
18$
10$
1-$
1/$
1'$
1$$
1&$
1|#
1y#
1{#
1s#
1p#
1r#
1j#
1g#
1i#
1a#
1^#
1`#
1X#
1U#
1W#
1O#
1L#
1N#
1F#
1C#
1E#
1=#
1:#
1<#
14#
11#
13#
1+#
1(#
1*#
1"#
1}"
1!#
1w"
1t"
1v"
1n"
1k"
1m"
1e"
1b"
1d"
1\"
1Y"
1["
1S"
1P"
1R"
1J"
1G"
1I"
1A"
1>"
1@"
18"
15"
17"
1/"
1,"
1."
1&"
1#"
1%"
1{
1x
1z
1r
04
1o
1_
1q
b101 5
b101 ?
0X
1W
1a
0j
b11111111111111111111111111111010 E
1i
0s
0|
0'"
00"
09"
0B"
0K"
0T"
0]"
0f"
0o"
0x"
0##
0,#
05#
0>#
0G#
0P#
0Y#
0b#
0k#
0t#
0}#
0($
01$
0:$
0C$
b100000000000000000000000000000101 @
b100000000000000000000000000000101 F
0L$
0S
1R
0\
0e
1d
1n
1w
1""
1+"
14"
1="
1F"
1O"
1X"
1a"
1j"
1s"
1|"
1'#
10#
19#
1B#
1K#
1T#
1]#
1f#
1o#
1x#
1#$
1,$
15$
1>$
1G$
1U
0^
1g
1p
1y
1$"
1-"
16"
1?"
1H"
1Q"
1Z"
1c"
1l"
1u"
1~"
1)#
12#
1;#
1D#
1M#
1V#
1_#
1h#
1q#
1z#
1%$
1.$
17$
1@$
1I$
b11111111111111111111111111111011 B
b11111111111111111111111111111011 D
b10 7
0*
1,
#110000
0,
#115000
1"
b101 $
b101 6
b11 7
1,
#120000
0,
#125000
b0 7
0"
1,
#130000
0,
#135000
1,
#140000
0,
#145000
b1010 (
b1010 .
b101 '
b101 -
b11111111111111111111111111111011 \$
b1010 `$
b101 _$
b1010011010101010100001000100000001010000011010100101101001100010011000000101001 b$
1,
#150000
0,
#155000
b11111111111111111111111111110110 >
b11111111111111111111111111110110 N$
b1 7
b1010 :
b1010 <
b1010 M$
b1010 P$
b1010 T$
b1010 X$
b101 9
b101 ;
b101 O$
b101 S$
b101 W$
1*
1,
#160000
0,
#165000
04
0K$
1L$
0H$
0J$
0B$
1C$
0?$
0A$
09$
1:$
06$
08$
00$
11$
0-$
0/$
0'$
1($
0$$
0&$
0|#
1}#
0y#
0{#
0s#
1t#
0p#
0r#
0j#
1k#
0g#
0i#
0a#
1b#
0^#
0`#
0X#
1Y#
0U#
0W#
0O#
1P#
0L#
0N#
0F#
1G#
0C#
0E#
0=#
1>#
0:#
0<#
04#
15#
01#
03#
0+#
1,#
0(#
0*#
0"#
1##
0}"
0!#
0w"
1x"
0t"
0v"
0n"
1o"
0k"
0m"
0e"
1f"
0b"
0d"
0\"
1]"
0Y"
0["
0S"
1T"
0P"
0R"
0J"
1K"
0G"
0I"
0A"
1B"
0>"
0@"
08"
19"
05"
07"
0/"
10"
0,"
0."
0&"
1'"
0#"
0%"
0{
1|
0x
0z
0r
0a
1j
1s
0o
b11111111111111111111111111111011 5
b11111111111111111111111111111011 ?
0_
1h
0q
b11111111111111111111111111111011 @
b11111111111111111111111111111011 F
1X
0W
1`
b100 E
0i
1S
0R
1[
0d
0L
1^
0g
1H
0Q
1Z
0c
b11111111111111111111111111110110 B
b11111111111111111111111111110110 D
b101 A
b101 C
b10 7
0*
1,
#170000
0,
#175000
1"
b11111111111111111111111111111011 $
b11111111111111111111111111111011 6
b11 7
1,
#180000
0,
#185000
b0 7
0"
1,
#190000
0,
#195000
1,
#200000
0,
#205000
b11101 )
b11101 /
b10 (
b10 .
b1 '
b1 -
b100 \$
b11101 a$
b10 `$
b1 _$
b1010011010011000100110000100000001010000011000100111100001111000011001000101001 b$
1,
#210000
0,
#215000
14
b11111111111111111111111111111110 >
b11111111111111111111111111111110 N$
b1 7
b1000 8
b1000 =
b1000 Q$
b1000 U$
b1000 Y$
b10 :
b10 <
b10 M$
b10 P$
b10 T$
b10 X$
b1 9
b1 ;
b1 O$
b1 S$
b1 W$
1*
1,
#220000
0,
#225000
0j
b0 5
b0 ?
0h
04
0X
0s
0|
0'"
00"
09"
0B"
0K"
0T"
0]"
0f"
0o"
0x"
0##
0,#
05#
0>#
0G#
0P#
0Y#
0b#
0k#
0t#
0}#
0($
01$
0:$
0C$
0L$
b0 @
b0 F
0O
b0 E
0`
0S
0n
0w
0""
0+"
04"
0="
0F"
0O"
0X"
0a"
0j"
0s"
0|"
0'#
00#
09#
0B#
0K#
0T#
0]#
0f#
0o#
0x#
0#$
0,$
05$
0>$
0G$
0J
0[
0U
0^
0p
0y
0$"
0-"
06"
0?"
0H"
0Q"
0Z"
0c"
0l"
0u"
0~"
0)#
02#
0;#
0D#
0M#
0V#
0_#
0h#
0q#
0z#
0%$
0.$
07$
0@$
0I$
0H
0Z
b0 B
b0 D
b0 A
b0 C
b100 0
b100 Z$
b10 7
0*
1,
#230000
0,
#235000
1"
b100 $
b100 6
b11 7
1,
#240000
0,
#245000
b0 7
0"
1,
#250000
0,
#255000
1,
#260000
0,
#265000
b100001 )
b100001 /
b1000 '
b1000 -
b10 \$
b100001 a$
b1000 _$
b1010011010100100100110000100000001010000011100000111110001111100011001000101001 b$
1,
#270000
0,
#275000
b1 7
b1100 8
b1100 =
b1100 Q$
b1100 U$
b1100 Y$
b1000 9
b1000 ;
b1000 O$
b1000 S$
b1000 W$
1*
1,
#280000
0,
#285000
b10 0
b10 Z$
b10 7
0*
1,
#290000
0,
#295000
1"
b10 $
b10 6
b11 7
1,
#300000
0,
#305000
b0 7
0"
1,
#310000
0,
#315000
1,
#320000
0,
#325000
b100010 )
b100010 /
b11111111111111111111111111111000 '
b11111111111111111111111111111000 -
b11111111111111111111111111111110 \$
b100010 a$
b11111111111111111111111111111000 _$
b10100110101001001000001001000000010100000101101001110000011111000111110001111100011001000101001 b$
1,
#330000
0,
#335000
b1 7
b1101 8
b1101 =
b1101 Q$
b1101 U$
b1101 Y$
b11111111111111111111111111111000 9
b11111111111111111111111111111000 ;
b11111111111111111111111111111000 O$
b11111111111111111111111111111000 S$
b11111111111111111111111111111000 W$
1*
1,
#340000
0,
#345000
b11111111111111111111111111111110 0
b11111111111111111111111111111110 Z$
b10 7
0*
1,
#350000
0,
#355000
1"
b11111111111111111111111111111110 $
b11111111111111111111111111111110 6
b11 7
1,
#360000
0,
#365000
b0 7
0"
1,
#370000
0,
#375000
1,
#380000
0,
#385000
b100000 )
b100000 /
b1111 (
b1111 .
b11110000 '
b11110000 -
b11111111 \$
b100000 a$
b1111 `$
b11110000 _$
b101100001001111010100100010000000101000010001100011000001011110001100000100011000101001 b$
1,
#390000
0,
#395000
b11111111111111111111111111110001 >
b11111111111111111111111111110001 N$
b1 7
b1011 8
b1011 =
b1011 Q$
b1011 U$
b1011 Y$
b1111 :
b1111 <
b1111 M$
b1111 P$
b1111 T$
b1111 X$
b11110000 9
b11110000 ;
b11110000 O$
b11110000 S$
b11110000 W$
1*
1,
#400000
0,
#405000
b11111111 1
b11111111 V$
b0 0
b0 Z$
b10 7
0*
1,
#410000
0,
#415000
1"
b11111111 $
b11111111 6
b11 7
1,
#420000
0,
#425000
b0 7
0"
1,
#430000
0,
#435000
1,
#440000
0,
#445000
b100011 )
b100011 /
b100011 a$
b100111101010010001000000010000000101000010001100011000001111100001100000100011000101001 b$
1,
#450000
0,
#455000
b1 7
b1110 8
b1110 =
b1110 Q$
b1110 U$
b1110 Y$
1*
1,
#460000
0,
#465000
b10 7
0*
1,
#470000
0,
#475000
1"
b11 7
1,
#480000
0,
#485000
b0 7
0"
1,
#490000
0,
#495000
1,
#500000
0,
