Testbench/alu_wave.vcd
$date
	Tue Apr 22 14:04:47 2025
$end
$version
	Icarus Verilog
$end
$timescale
	1ps
$end
$scope module tb_alu $end
$var wire 1 ! ALU_zero $end
$var wire 1 " ALU_ready $end
$var wire 1 # ALU_overflow $end
$var wire 32 $ ALU_out [31:0] $end
$var wire 1 % ALU_err $end
$var wire 1 & ALU_con_met $end
$var reg 32 ' ALU_dat1 [31:0] $end
$var reg 32 ( ALU_dat2 [31:0] $end
$var reg 5 ) Instruction_to_ALU [4:0] $end
$var reg 1 * dat_ready $end
$var reg 1 + reset $end
$var reg 1 , soc_clk $end
$var integer 32 - test_case [31:0] $end
$var integer 32 . tests_failed [31:0] $end
$var integer 32 / tests_passed [31:0] $end
$scope module ALU_DUT $end
$var wire 32 0 ALU_dat1 [31:0] $end
$var wire 32 1 ALU_dat2 [31:0] $end
$var wire 5 2 Instruction_to_ALU [4:0] $end
$var wire 1 * dat_ready $end
$var wire 1 + reset $end
$var wire 1 , soc_clk $end
$var wire 32 3 Shifter_out [31:0] $end
$var wire 32 4 LogOp_out [31:0] $end
$var wire 32 5 Comparator_out [31:0] $end
$var wire 1 6 Comparator_con_met $end
$var wire 1 7 AddSub_zero $end
$var wire 1 8 AddSub_overflow $end
$var wire 32 9 AddSub_out [31:0] $end
$var reg 1 & ALU_con_met $end
$var reg 1 % ALU_err $end
$var reg 32 : ALU_out [31:0] $end
$var reg 1 # ALU_overflow $end
$var reg 1 " ALU_ready $end
$var reg 2 ; ALU_result_counter [1:0] $end
$var reg 1 ! ALU_zero $end
$var reg 32 < reg_ALU_dat1 [31:0] $end
$var reg 32 = reg_ALU_dat2 [31:0] $end
$var reg 5 > reg_concat_op [4:0] $end
$scope module AS $end
$var wire 32 ? ALU_dat1 [31:0] $end
$var wire 32 @ ALU_dat2 [31:0] $end
$var wire 1 8 AddSub_overflow $end
$var wire 1 7 AddSub_zero $end
$var wire 5 A Instruction_to_ALU [4:0] $end
$var wire 1 * dat_ready $end
$var wire 1 + reset $end
$var wire 1 , soc_clk $end
$var wire 32 B TC_dat2 [31:0] $end
$var wire 32 C AddSub_out [31:0] $end
$var wire 33 D AddSub_int [32:0] $end
$var reg 32 E RA_dat1 [31:0] $end
$var reg 32 F RA_dat2 [31:0] $end
$scope module RA $end
$var wire 32 G A [31:0] $end
$var wire 32 H B [31:0] $end
$var wire 32 I c [31:0] $end
$var wire 33 J SUM [32:0] $end
$scope begin FA_BITS[0] $end
$scope begin genblk2 $end
$scope module FA $end
$var wire 1 K a $end
$var wire 1 L ab $end
$var wire 1 M axb $end
$var wire 1 N axbcin $end
$var wire 1 O b $end
$var wire 1 P cin $end
$var wire 1 Q cout $end
$var wire 1 R sum $end
$upscope $end
$upscope $end
$upscope $end
$scope begin FA_BITS[1] $end
$scope begin genblk3 $end
$scope module FA $end
$var wire 1 S a $end
$var wire 1 T ab $end
$var wire 1 U axb $end
$var wire 1 V axbcin $end
$var wire 1 W b $end
$var wire 1 X cin $end
$var wire 1 Y cout $end
$var wire 1 Z sum $end
$upscope $end
$upscope $end
$upscope $end
$scope begin FA_BITS[2] $end
$scope begin genblk3 $end
$scope module FA $end
$var wire 1 [ a $end
$var wire 1 \ ab $end
$var wire 1 ] axb $end
$var wire 1 ^ axbcin $end
$var wire 1 _ b $end
$var wire 1 ` cin $end
$var wire 1 a cout $end
$var wire 1 b sum $end
$upscope $end
$upscope $end
$upscope $end
$scope begin FA_BITS[3] $end
$scope begin genblk3 $end
$scope module FA $end
$var wire 1 c a $end
$var wire 1 d ab $end
$var wire 1 e axb $end
$var wire 1 f axbcin $end
$var wire 1 g b $end
$var wire 1 h cin $end
$var wire 1 i cout $end
$var wire 1 j sum $end
$upscope $end
$upscope $end
$upscope $end
$scope begin FA_BITS[4] $end
$scope begin genblk3 $end
$scope module FA $end
$var wire 1 k a $end
$var wire 1 l ab $end
$var wire 1 m axb $end
$var wire 1 n axbcin $end
$var wire 1 o b $end
$var wire 1 p cin $end
$var wire 1 q cout $end
$var wire 1 r sum $end
$upscope $end
$upscope $end
$upscope $end
$scope begin FA_BITS[5] $end
$scope begin genblk3 $end
$scope module FA $end
$var wire 1 s a $end
$var wire 1 t ab $end
$var wire 1 u axb $end
$var wire 1 v axbcin $end
$var wire 1 w b $end
$var wire 1 x cin $end
$var wire 1 y cout $end
$var wire 1 z sum $end
$upscope $end
$upscope $end
$upscope $end
$scope begin FA_BITS[6] $end
$scope begin genblk3 $end
$scope module FA $end
$var wire 1 { a $end
$var wire 1 | ab $end
$var wire 1 } axb $end
$var wire 1 ~ axbcin $end
$var wire 1 !" b $end
$var wire 1 "" cin $end
$var wire 1 #" cout $end
$var wire 1 $" sum $end
$upscope $end
$upscope $end
$upscope $end
$scope begin FA_BITS[7] $end
$scope begin genblk3 $end
$scope module FA $end
$var wire 1 %" a $end
$var wire 1 &" ab $end
$var wire 1 '" axb $end
$var wire 1 (" axbcin $end
$var wire 1 )" b $end
$var wire 1 *" cin $end
$var wire 1 +" cout $end
$var wire 1 ," sum $end
$upscope $end
$upscope $end
$upscope $end
$scope begin FA_BITS[8] $end
$scope begin genblk3 $end
$scope module FA $end
$var wire 1 -" a $end
$var wire 1 ." ab $end
$var wire 1 /" axb $end
$var wire 1 0" axbcin $end
$var wire 1 1" b $end
$var wire 1 2" cin $end
$var wire 1 3" cout $end
$var wire 1 4" sum $end
$upscope $end
$upscope $end
$upscope $end
$scope begin FA_BITS[9] $end
$scope begin genblk3 $end
$scope module FA $end
$var wire 1 5" a $end
$var wire 1 6" ab $end
$var wire 1 7" axb $end
$var wire 1 8" axbcin $end
$var wire 1 9" b $end
$var wire 1 :" cin $end
$var wire 1 ;" cout $end
$var wire 1 <" sum $end
$upscope $end
$upscope $end
$upscope $end
$scope begin FA_BITS[10] $end
$scope begin genblk3 $end
$scope module FA $end
$var wire 1 =" a $end
$var wire 1 >" ab $end
$var wire 1 ?" axb $end
$var wire 1 @" axbcin $end
$var wire 1 A" b $end
$var wire 1 B" cin $end
$var wire 1 C" cout $end
$var wire 1 D" sum $end
$upscope $end
$upscope $end
$upscope $end
$scope begin FA_BITS[11] $end
$scope begin genblk3 $end
$scope module FA $end
$var wire 1 E" a $end
$var wire 1 F" ab $end
$var wire 1 G" axb $end
$var wire 1 H" axbcin $end
$var wire 1 I" b $end
$var wire 1 J" cin $end
$var wire 1 K" cout $end
$var wire 1 L" sum $end
$upscope $end
$upscope $end
$upscope $end
$scope begin FA_BITS[12] $end
$scope begin genblk3 $end
$scope module FA $end
$var wire 1 M" a $end
$var wire 1 N" ab $end
$var wire 1 O" axb $end
$var wire 1 P" axbcin $end
$var wire 1 Q" b $end
$var wire 1 R" cin $end
$var wire 1 S" cout $end
$var wire 1 T" sum $end
$upscope $end
$upscope $end
$upscope $end
$scope begin FA_BITS[13] $end
$scope begin genblk3 $end
$scope module FA $end
$var wire 1 U" a $end
$var wire 1 V" ab $end
$var wire 1 W" axb $end
$var wire 1 X" axbcin $end
$var wire 1 Y" b $end
$var wire 1 Z" cin $end
$var wire 1 [" cout $end
$var wire 1 \" sum $end
$upscope $end
$upscope $end
$upscope $end
$scope begin FA_BITS[14] $end
$scope begin genblk3 $end
$scope module FA $end
$var wire 1 ]" a $end
$var wire 1 ^" ab $end
$var wire 1 _" axb $end
$var wire 1 `" axbcin $end
$var wire 1 a" b $end
$var wire 1 b" cin $end
$var wire 1 c" cout $end
$var wire 1 d" sum $end
$upscope $end
$upscope $end
$upscope $end
$scope begin FA_BITS[15] $end
$scope begin genblk3 $end
$scope module FA $end
$var wire 1 e" a $end
$var wire 1 f" ab $end
$var wire 1 g" axb $end
$var wire 1 h" axbcin $end
$var wire 1 i" b $end
$var wire 1 j" cin $end
$var wire 1 k" cout $end
$var wire 1 l" sum $end
$upscope $end
$upscope $end
$upscope $end
$scope begin FA_BITS[16] $end
$scope begin genblk3 $end
$scope module FA $end
$var wire 1 m" a $end
$var wire 1 n" ab $end
$var wire 1 o" axb $end
$var wire 1 p" axbcin $end
$var wire 1 q" b $end
$var wire 1 r" cin $end
$var wire 1 s" cout $end
$var wire 1 t" sum $end
$upscope $end
$upscope $end
$upscope $end
$scope begin FA_BITS[17] $end
$scope begin genblk3 $end
$scope module FA $end
$var wire 1 u" a $end
$var wire 1 v" ab $end
$var wire 1 w" axb $end
$var wire 1 x" axbcin $end
$var wire 1 y" b $end
$var wire 1 z" cin $end
$var wire 1 {" cout $end
$var wire 1 |" sum $end
$upscope $end
$upscope $end
$upscope $end
$scope begin FA_BITS[18] $end
$scope begin genblk3 $end
$scope module FA $end
$var wire 1 }" a $end
$var wire 1 ~" ab $end
$var wire 1 !# axb $end
$var wire 1 "# axbcin $end
$var wire 1 ## b $end
$var wire 1 $# cin $end
$var wire 1 %# cout $end
$var wire 1 &# sum $end
$upscope $end
$upscope $end
$upscope $end
$scope begin FA_BITS[19] $end
$scope begin genblk3 $end
$scope module FA $end
$var wire 1 '# a $end
$var wire 1 (# ab $end
$var wire 1 )# axb $end
$var wire 1 *# axbcin $end
$var wire 1 +# b $end
$var wire 1 ,# cin $end
$var wire 1 -# cout $end
$var wire 1 .# sum $end
$upscope $end
$upscope $end
$upscope $end
$scope begin FA_BITS[20] $end
$scope begin genblk3 $end
$scope module FA $end
$var wire 1 /# a $end
$var wire 1 0# ab $end
$var wire 1 1# axb $end
$var wire 1 2# axbcin $end
$var wire 1 3# b $end
$var wire 1 4# cin $end
$var wire 1 5# cout $end
$var wire 1 6# sum $end
$upscope $end
$upscope $end
$upscope $end
$scope begin FA_BITS[21] $end
$scope begin genblk3 $end
$scope module FA $end
$var wire 1 7# a $end
$var wire 1 8# ab $end
$var wire 1 9# axb $end
$var wire 1 :# axbcin $end
$var wire 1 ;# b $end
$var wire 1 <# cin $end
$var wire 1 =# cout $end
$var wire 1 ># sum $end
$upscope $end
$upscope $end
$upscope $end
$scope begin FA_BITS[22] $end
$scope begin genblk3 $end
$scope module FA $end
$var wire 1 ?# a $end
$var wire 1 @# ab $end
$var wire 1 A# axb $end
$var wire 1 B# axbcin $end
$var wire 1 C# b $end
$var wire 1 D# cin $end
$var wire 1 E# cout $end
$var wire 1 F# sum $end
$upscope $end
$upscope $end
$upscope $end
$scope begin FA_BITS[23] $end
$scope begin genblk3 $end
$scope module FA $end
$var wire 1 G# a $end
$var wire 1 H# ab $end
$var wire 1 I# axb $end
$var wire 1 J# axbcin $end
$var wire 1 K# b $end
$var wire 1 L# cin $end
$var wire 1 M# cout $end
$var wire 1 N# sum $end
$upscope $end
$upscope $end
$upscope $end
$scope begin FA_BITS[24] $end
$scope begin genblk3 $end
$scope module FA $end
$var wire 1 O# a $end
$var wire 1 P# ab $end
$var wire 1 Q# axb $end
$var wire 1 R# axbcin $end
$var wire 1 S# b $end
$var wire 1 T# cin $end
$var wire 1 U# cout $end
$var wire 1 V# sum $end
$upscope $end
$upscope $end
$upscope $end
$scope begin FA_BITS[25] $end
$scope begin genblk3 $end
$scope module FA $end
$var wire 1 W# a $end
$var wire 1 X# ab $end
$var wire 1 Y# axb $end
$var wire 1 Z# axbcin $end
$var wire 1 [# b $end
$var wire 1 \# cin $end
$var wire 1 ]# cout $end
$var wire 1 ^# sum $end
$upscope $end
$upscope $end
$upscope $end
$scope begin FA_BITS[26] $end
$scope begin genblk3 $end
$scope module FA $end
$var wire 1 _# a $end
$var wire 1 `# ab $end
$var wire 1 a# axb $end
$var wire 1 b# axbcin $end
$var wire 1 c# b $end
$var wire 1 d# cin $end
$var wire 1 e# cout $end
$var wire 1 f# sum $end
$upscope $end
$upscope $end
$upscope $end
$scope begin FA_BITS[27] $end
$scope begin genblk3 $end
$scope module FA $end
$var wire 1 g# a $end
$var wire 1 h# ab $end
$var wire 1 i# axb $end
$var wire 1 j# axbcin $end
$var wire 1 k# b $end
$var wire 1 l# cin $end
$var wire 1 m# cout $end
$var wire 1 n# sum $end
$upscope $end
$upscope $end
$upscope $end
$scope begin FA_BITS[28] $end
$scope begin genblk3 $end
$scope module FA $end
$var wire 1 o# a $end
$var wire 1 p# ab $end
$var wire 1 q# axb $end
$var wire 1 r# axbcin $end
$var wire 1 s# b $end
$var wire 1 t# cin $end
$var wire 1 u# cout $end
$var wire 1 v# sum $end
$upscope $end
$upscope $end
$upscope $end
$scope begin FA_BITS[29] $end
$scope begin genblk3 $end
$scope module FA $end
$var wire 1 w# a $end
$var wire 1 x# ab $end
$var wire 1 y# axb $end
$var wire 1 z# axbcin $end
$var wire 1 {# b $end
$var wire 1 |# cin $end
$var wire 1 }# cout $end
$var wire 1 ~# sum $end
$upscope $end
$upscope $end
$upscope $end
$scope begin FA_BITS[30] $end
$scope begin genblk3 $end
$scope module FA $end
$var wire 1 !$ a $end
$var wire 1 "$ ab $end
$var wire 1 #$ axb $end
$var wire 1 $$ axbcin $end
$var wire 1 %$ b $end
$var wire 1 &$ cin $end
$var wire 1 '$ cout $end
$var wire 1 ($ sum $end
$upscope $end
$upscope $end
$upscope $end
$scope begin FA_BITS[31] $end
$scope begin genblk3 $end
$scope module FA $end
$var wire 1 )$ a $end
$var wire 1 *$ ab $end
$var wire 1 +$ axb $end
$var wire 1 ,$ axbcin $end
$var wire 1 -$ b $end
$var wire 1 .$ cin $end
$var wire 1 /$ cout $end
$var wire 1 0$ sum $end
$upscope $end
$upscope $end
$upscope $end
$upscope $end
$scope module TC $end
$var wire 32 1$ in [31:0] $end
$var wire 32 2$ out [31:0] $end
$upscope $end
$upscope $end
$scope module C $end
$var wire 32 3$ ALU_dat1 [31:0] $end
$var wire 32 4$ ALU_dat2 [31:0] $end
$var wire 5 5$ Instruction_to_ALU [4:0] $end
$var wire 1 * dat_ready $end
$var wire 1 + reset $end
$var wire 1 , soc_clk $end
$var reg 1 6 Comparator_con_met $end
$var reg 32 6$ Comparator_out [31:0] $end
$upscope $end
$scope module LO $end
$var wire 32 7$ ALU_dat1 [31:0] $end
$var wire 32 8$ ALU_dat2 [31:0] $end
$var wire 5 9$ Instruction_to_ALU [4:0] $end
$var wire 1 * dat_ready $end
$var wire 1 + reset $end
$var wire 1 , soc_clk $end
$var reg 32 :$ LogOp_out [31:0] $end
$upscope $end
$scope module S $end
$var wire 32 ;$ ALU_dat1 [31:0] $end
$var wire 32 <$ ALU_dat2 [31:0] $end
$var wire 5 =$ Instruction_to_ALU [4:0] $end
$var wire 1 * dat_ready $end
$var wire 1 + reset $end
$var wire 1 , soc_clk $end
$var reg 32 >$ Shifter_out [31:0] $end
$upscope $end
$upscope $end
$scope task test_alu_operation $end
$var reg 1 ?$ expected_con_met $end
$var reg 1 @$ expected_overflow $end
$var reg 32 A$ expected_result [31:0] $end
$var reg 1 B$ expected_zero $end
$var reg 5 C$ instr [4:0] $end
$var reg 32 D$ operand1 [31:0] $end
$var reg 32 E$ operand2 [31:0] $end
$var reg 1 F$ test_passed $end
$upscope $end
$upscope $end
$enddefinitions $end
#0
$dumpvars
0F$
bx E$
bx D$
bx C$
xB$
bx A$
x@$
x?$
bx >$
b10000 =$
b0 <$
b0 ;$
bx :$
b10000 9$
b0 8$
b0 7$
b0 6$
b10000 5$
b0 4$
b0 3$
b0 2$
b0 1$
x0$
x/$
x.$
x-$
x,$
x+$
x*$
x)$
x($
x'$
x&$
x%$
x$$
x#$
x"$
x!$
x~#
x}#
x|#
x{#
xz#
xy#
xx#
xw#
xv#
xu#
xt#
xs#
xr#
xq#
xp#
xo#
xn#
xm#
xl#
xk#
xj#
xi#
xh#
xg#
xf#
xe#
xd#
xc#
xb#
xa#
x`#
x_#
x^#
x]#
x\#
x[#
xZ#
xY#
xX#
xW#
xV#
xU#
xT#
xS#
xR#
xQ#
xP#
xO#
xN#
xM#
xL#
xK#
xJ#
xI#
xH#
xG#
xF#
xE#
xD#
xC#
xB#
xA#
x@#
x?#
x>#
x=#
x<#
x;#
x:#
x9#
x8#
x7#
x6#
x5#
x4#
x3#
x2#
x1#
x0#
x/#
x.#
x-#
x,#
x+#
x*#
x)#
x(#
x'#
x&#
x%#
x$#
x##
x"#
x!#
x~"
x}"
x|"
x{"
xz"
xy"
xx"
xw"
xv"
xu"
xt"
xs"
xr"
xq"
xp"
xo"
xn"
xm"
xl"
xk"
xj"
xi"
xh"
xg"
xf"
xe"
xd"
xc"
xb"
xa"
x`"
x_"
x^"
x]"
x\"
x["
xZ"
xY"
xX"
xW"
xV"
xU"
xT"
xS"
xR"
xQ"
xP"
xO"
xN"
xM"
xL"
xK"
xJ"
xI"
xH"
xG"
xF"
xE"
xD"
xC"
xB"
xA"
x@"
x?"
x>"
x="
x<"
x;"
x:"
x9"
x8"
x7"
x6"
x5"
x4"
x3"
x2"
x1"
x0"
x/"
x."
x-"
x,"
x+"
x*"
x)"
x("
x'"
x&"
x%"
x$"
x#"
x""
x!"
x~
x}
x|
x{
xz
xy
xx
xw
xv
xu
xt
xs
xr
xq
xp
xo
xn
xm
xl
xk
xj
xi
xh
xg
xf
xe
xd
xc
xb
xa
x`
x_
x^
x]
x\
x[
xZ
xY
xX
xW
xV
xU
xT
xS
xR
xQ
0P
xO
0N
xM
xL
xK
bx J
bx I
bx H
bx G
bx F
bx E
bx D
bx C
b0 B
b10000 A
b0 @
b0 ?
b0 >
b0 =
b0 <
b0 ;
b0 :
bx 9
x8
x7
06
b0 5
bx 4
bx 3
b10000 2
b0 1
b0 0
b0 /
b0 .
b0 -
0,
1+
0*
b10000 )
b0 (
b0 '
0&
0%
b0 $
0#
0"
0!
$end
#5000
17
0b
0j
0r
0z
0$"
0,"
04"
0<"
0D"
0L"
0T"
0\"
0d"
0l"
0t"
0|"
0&#
0.#
06#
0>#
0F#
0N#
0V#
0^#
0f#
0n#
0v#
0~#
0($
00$
0Z
0`
0h
0p
0x
0""
0*"
02"
0:"
0B"
0J"
0R"
0Z"
0b"
0j"
0r"
0z"
0$#
0,#
04#
0<#
0D#
0L#
0T#
0\#
0d#
0l#
0t#
0|#
0&$
0.$
08
b0 9
b0 C
0X
0Y
0a
0i
0q
0y
0#"
0+"
03"
0;"
0C"
0K"
0S"
0["
0c"
0k"
0s"
0{"
0%#
0-#
05#
0=#
0E#
0M#
0U#
0]#
0e#
0m#
0u#
0}#
0'$
0/$
b0 D
b0 J
0R
b0 I
0Q
0V
0^
0f
0n
0v
0~
0("
00"
08"
0@"
0H"
0P"
0X"
0`"
0h"
0p"
0x"
0"#
0*#
02#
0:#
0B#
0J#
0R#
0Z#
0b#
0j#
0r#
0z#
0$$
0,$
0M
0L
0U
0T
0]
0\
0e
0d
0m
0l
0u
0t
0}
0|
0'"
0&"
0/"
0."
07"
06"
0?"
0>"
0G"
0F"
0O"
0N"
0W"
0V"
0_"
0^"
0g"
0f"
0o"
0n"
0w"
0v"
0!#
0~"
0)#
0(#
01#
00#
09#
08#
0A#
0@#
0I#
0H#
0Q#
0P#
0Y#
0X#
0a#
0`#
0i#
0h#
0q#
0p#
0y#
0x#
0#$
0"$
0+$
0*$
0O
0W
0_
0g
0o
0w
0!"
0)"
01"
09"
0A"
0I"
0Q"
0Y"
0a"
0i"
0q"
0y"
0##
0+#
03#
0;#
0C#
0K#
0S#
0[#
0c#
0k#
0s#
0{#
0%$
0-$
0K
0S
0[
0c
0k
0s
0{
0%"
0-"
05"
0="
0E"
0M"
0U"
0]"
0e"
0m"
0u"
0}"
0'#
0/#
07#
0?#
0G#
0O#
0W#
0_#
0g#
0o#
0w#
0!$
0)$
b0 F
b0 H
b0 E
b0 G
b0 4
b0 :$
b0 3
b0 >$
1,
#10000
0,
#15000
1,
#20000
0,
0+
#25000
1,
#30000
0,
1F$
b1 -
0?$
0B$
0@$
b1000 A$
b11 E$
b101 D$
b110 C$
#35000
b11111111111111111111111111111101 B
b11111111111111111111111111111101 2$
b11 =
b11 @
b11 1$
b11 4$
b11 8$
b11 <$
b101 <
b101 ?
b101 3$
b101 7$
b101 ;$
1*
b11 (
b11 1
b101 '
b101 0
b110 )
b110 2
b110 A
b110 5$
b110 9$
b110 =$
1,
#40000
0,
#45000
1j
1h
1a
1^
1`
1Y
1V
07
1X
b1000 9
b1000 C
0Z
b111 I
1Q
b1000 D
b1000 J
0b
1U
1L
1]
1O
1W
1K
1[
b11 F
b11 H
b101 E
b101 G
b1 ;
1,
#50000
0,
#55000
b10 ;
b1000 $
b1000 :
1"
1,
#60000
0,
#65000
b0 ;
b10 -
b10 A$
b111 C$
0*
b1 /
1,
#70000
0,
#75000
1/$
1,$
1.$
1'$
1$$
1&$
1}#
1z#
1|#
1u#
1r#
1t#
1m#
1j#
1l#
1e#
1b#
1d#
1]#
1Z#
1\#
1U#
1R#
1T#
1M#
1J#
1L#
1E#
1B#
1D#
1=#
1:#
1<#
15#
12#
14#
1-#
1*#
1,#
1%#
1"#
1$#
1{"
1x"
1z"
1s"
1p"
1r"
1k"
1h"
1j"
1c"
1`"
1b"
1["
1X"
1Z"
1S"
1P"
1R"
1K"
1H"
1J"
1C"
1@"
1B"
1;"
18"
1:"
13"
10"
12"
1+"
1("
1*"
1#"
1~
1""
1y
1v
1x
1q
1n
08
0`
1p
0Y
b11111111111111111111111111111101 I
1i
b10 9
b10 C
1Z
0V
0b
0^
0j
1f
0r
0z
0$"
0,"
04"
0<"
0D"
0L"
0T"
0\"
0d"
0l"
0t"
0|"
0&#
0.#
06#
0>#
0F#
0N#
0V#
0^#
0f#
0n#
0v#
0~#
0($
b100000000000000000000000000000010 D
b100000000000000000000000000000010 J
00$
0U
0]
1\
1e
1m
1u
1}
1'"
1/"
17"
1?"
1G"
1O"
1W"
1_"
1g"
1o"
1w"
1!#
1)#
11#
19#
1A#
1I#
1Q#
1Y#
1a#
1i#
1q#
1y#
1#$
1+$
0W
1_
1g
1o
1w
1!"
1)"
11"
19"
1A"
1I"
1Q"
1Y"
1a"
1i"
1q"
1y"
1##
1+#
13#
1;#
1C#
1K#
1S#
1[#
1c#
1k#
1s#
1{#
1%$
1-$
b11111111111111111111111111111101 F
b11111111111111111111111111111101 H
0"
1*
b111 )
b111 2
b111 A
b111 5$
b111 9$
b111 =$
1,
#80000
0,
#85000
b1 ;
b0 $
b0 :
1,
#90000
0,
#95000
b10 ;
b10 $
b10 :
1"
1,
#100000
0,
#105000
b0 ;
b11 -
b1100 A$
b10 E$
b11 D$
b1000 C$
0*
b10 /
1,
#110000
0,
#115000
17
0p
0x
0""
0*"
02"
0:"
0B"
0J"
0R"
0Z"
0b"
0j"
0r"
0z"
0$#
0,#
04#
0<#
0D#
0L#
0T#
0\#
0d#
0l#
0t#
0|#
0&$
0.$
0Z
0i
0q
0y
0#"
0+"
03"
0;"
0C"
0K"
0S"
0["
0c"
0k"
0s"
0{"
0%#
0-#
05#
0=#
0E#
0M#
0U#
0]#
0e#
0m#
0u#
0}#
0'$
b0 9
b0 C
0/$
0X
0h
0j
0f
0r
0n
0z
0v
0$"
0~
0,"
0("
04"
00"
0<"
08"
0D"
0@"
0L"
0H"
0T"
0P"
0\"
0X"
0d"
0`"
0l"
0h"
0t"
0p"
0|"
0x"
0&#
0"#
0.#
0*#
06#
02#
0>#
0:#
0F#
0B#
0N#
0J#
0V#
0R#
0^#
0Z#
0f#
0b#
0n#
0j#
0v#
0r#
0~#
0z#
0($
0$$
b0 D
b0 J
00$
0,$
0Q
b0 I
0a
0e
0m
0u
0}
0'"
0/"
07"
0?"
0G"
0O"
0W"
0_"
0g"
0o"
0w"
0!#
0)#
01#
09#
0A#
0I#
0Q#
0Y#
0a#
0i#
0q#
0y#
0#$
0+$
0L
0\
b11111111111111111111111111111110 B
b11111111111111111111111111111110 2$
0O
0_
0g
0o
0w
0!"
0)"
01"
09"
0A"
0I"
0Q"
0Y"
0a"
0i"
0q"
0y"
0##
0+#
03#
0;#
0C#
0K#
0S#
0[#
0c#
0k#
0s#
0{#
0%$
0-$
0K
0[
b10 =
b10 @
b10 1$
b10 4$
b10 8$
b10 <$
b11 <
b11 ?
b11 3$
b11 7$
b11 ;$
b101000 3
b101000 >$
b0 F
b0 H
b0 E
b0 G
0"
1*
b10 (
b10 1
b11 '
b11 0
b1000 )
b1000 2
b1000 A
b1000 5$
b1000 9$
b1000 =$
1,
#120000
0,
#125000
b1100 3
b1100 >$
b1 ;
b0 $
b0 :
1,
#130000
0,
#135000
b10 ;
b1100 $
b1100 :
1"
1,
#140000
0,
#145000
b0 ;
b100 -
1?$
b1 A$
b101 E$
b1001 C$
0*
b11 /
1,
#150000
0,
#155000
b11111111111111111111111111111011 B
b11111111111111111111111111111011 2$
b101 =
b101 @
b101 1$
b101 4$
b101 8$
b101 <$
b0 3
b0 >$
0"
1*
b101 (
b101 1
b1001 )
b1001 2
b1001 A
b1001 5$
b1001 9$
b1001 =$
1,
#160000
0,
#165000
16
b1 5
b1 6$
b1 ;
b0 $
b0 :
1,
#170000
0,
#175000
b10 ;
1&
b1 $
b1 :
1"
1,
#180000
0,
#185000
b0 ;
b101 -
0?$
b0 A$
b1 E$
b11111111111111111111111111111111 D$
b1010 C$
0*
b100 /
1,
#190000
0,
#195000
b11111111111111111111111111111111 B
b11111111111111111111111111111111 2$
b1 =
b1 @
b1 1$
b1 4$
b1 8$
b1 <$
b11111111111111111111111111111111 <
b11111111111111111111111111111111 ?
b11111111111111111111111111111111 3$
b11111111111111111111111111111111 7$
b11111111111111111111111111111111 ;$
0"
1*
b1 (
b1 1
b11111111111111111111111111111111 '
b11111111111111111111111111111111 0
b1010 )
b1010 2
b1010 A
b1010 5$
b1010 9$
b1010 =$
1,
#200000
0,
#205000
06
b0 5
b0 6$
b1 ;
0&
b0 $
b0 :
1,
#210000
0,
#215000
b10 ;
1"
1,
#220000
0,
#225000
b0 ;
b110 -
b11110000000011111111000000001111 A$
b11111111000000001111111100000000 E$
b1111000011110000111100001111 D$
b1011 C$
0*
b101 /
1,
#230000
0,
#235000
b111111110000000100000000 B
b111111110000000100000000 2$
b11111111000000001111111100000000 =
b11111111000000001111111100000000 @
b11111111000000001111111100000000 1$
b11111111000000001111111100000000 4$
b11111111000000001111111100000000 8$
b11111111000000001111111100000000 <$
b1111000011110000111100001111 <
b1111000011110000111100001111 ?
b1111000011110000111100001111 3$
b1111000011110000111100001111 7$
b1111000011110000111100001111 ;$
b11111111111111111111111111111110 4
b11111111111111111111111111111110 :$
0"
1*
b11111111000000001111111100000000 (
b11111111000000001111111100000000 1
b1111000011110000111100001111 '
b1111000011110000111100001111 0
b1011 )
b1011 2
b1011 A
b1011 5$
b1011 9$
b1011 =$
1,
#240000
0,
#245000
b11110000000011111111000000001111 4
b11110000000011111111000000001111 :$
b1 ;
1,
#250000
0,
#255000
b10 ;
b11110000000011111111000000001111 $
b11110000000011111111000000001111 :
1"
1,
#260000
0,
#265000
b0 ;
b111 -
b1111000000000000000000000000 A$
b100 E$
b11110000000000000000000000000000 D$
b1100 C$
0*
b110 /
1,
#270000
0,
#275000
b11111111111111111111111111111100 B
b11111111111111111111111111111100 2$
b100 =
b100 @
b100 1$
b100 4$
b100 8$
b100 <$
b11110000000000000000000000000000 <
b11110000000000000000000000000000 ?
b11110000000000000000000000000000 3$
b11110000000000000000000000000000 7$
b11110000000000000000000000000000 ;$
b1111000011110000111100001111 3
b1111000011110000111100001111 >$
b0 4
b0 :$
0"
1*
b100 (
b100 1
b11110000000000000000000000000000 '
b11110000000000000000000000000000 0
b1100 )
b1100 2
b1100 A
b1100 5$
b1100 9$
b1100 =$
1,
#280000
0,
#285000
b1111000000000000000000000000 3
b1111000000000000000000000000 >$
b1 ;
b0 $
b0 :
1,
#290000
0,
#295000
b10 ;
b1111000000000000000000000000 $
b1111000000000000000000000000 :
1"
1,
#300000
0,
#305000
b0 ;
b1000 -
b11111111000000000000000000000000 A$
b1101 C$
0*
b111 /
1,
#310000
0,
#315000
b11111111000000000000000000000000 3
b11111111000000000000000000000000 >$
0"
1*
b1101 )
b1101 2
b1101 A
b1101 5$
b1101 9$
b1101 =$
1,
#320000
0,
#325000
b1 ;
b0 $
b0 :
1,
#330000
0,
#335000
b10 ;
b11111111000000000000000000000000 $
b11111111000000000000000000000000 :
1"
1,
#340000
0,
#345000
b0 ;
b1001 -
b11111111000011111111111100001111 A$
b11111111000000001111111100000000 E$
b1111000011110000111100001111 D$
b1110 C$
0*
b1000 /
1,
#350000
0,
#355000
b111111110000000100000000 B
b111111110000000100000000 2$
b11111111000000001111111100000000 =
b11111111000000001111111100000000 @
b11111111000000001111111100000000 1$
b11111111000000001111111100000000 4$
b11111111000000001111111100000000 8$
b11111111000000001111111100000000 <$
b1111000011110000111100001111 <
b1111000011110000111100001111 ?
b1111000011110000111100001111 3$
b1111000011110000111100001111 7$
b1111000011110000111100001111 ;$
b0 3
b0 >$
b11110000000000000000000000000100 4
b11110000000000000000000000000100 :$
0"
1*
b11111111000000001111111100000000 (
b11111111000000001111111100000000 1
b1111000011110000111100001111 '
b1111000011110000111100001111 0
b1110 )
b1110 2
b1110 A
b1110 5$
b1110 9$
b1110 =$
1,
#360000
0,
#365000
b11111111000011111111111100001111 4
b11111111000011111111111100001111 :$
b1 ;
b0 $
b0 :
1,
#370000
0,
#375000
b10 ;
b11111111000011111111111100001111 $
b11111111000011111111111100001111 :
1"
1,
#380000
0,
#385000
b0 ;
b1010 -
b1111000000000000111100000000 A$
b1111 C$
0*
b1001 /
1,
#390000
0,
#395000
b1111000000000000111100000000 4
b1111000000000000111100000000 :$
0"
1*
b1111 )
b1111 2
b1111 A
b1111 5$
b1111 9$
b1111 =$
1,
#400000
0,
#405000
b1 ;
b0 $
b0 :
1,
#410000
0,
#415000
b10 ;
b1111000000000000111100000000 $
b1111000000000000111100000000 :
1"
1,
#420000
0,
#425000
b0 ;
b1011 -
1?$
b0 A$
b101 E$
b101 D$
b0 C$
0*
b1010 /
1,
#430000
0,
