Testbench/alu_wave.vcd
$date
	Fri Apr 11 20:18:43 2025
$end
$version
	Icarus Verilog
$end
$timescale
	1ps
$end
$scope module tb_alu $end
$var wire 1 ! ALU_zero $end
$var wire 1 " ALU_ready $end
$var wire 1 # ALU_overflow $end
$var wire 32 $ ALU_out [31:0] $end
$var wire 1 % ALU_err $end
$var wire 1 & ALU_con_met $end
$var reg 32 ' ALU_dat1 [31:0] $end
$var reg 32 ( ALU_dat2 [31:0] $end
$var reg 3 ) ALU_opcode [2:0] $end
$var reg 1 * ALU_opcode_differentiator $end
$var reg 1 + ALU_optype $end
$var reg 5 , Instruction_to_ALU [4:0] $end
$var reg 1 - dat_ready $end
$var reg 1 . reset $end
$var reg 1 / soc_clk $end
$var integer 32 0 test_case [31:0] $end
$scope module ALU_DUT $end
$var wire 32 1 ALU_dat1 [31:0] $end
$var wire 32 2 ALU_dat2 [31:0] $end
$var wire 3 3 ALU_opcode [2:0] $end
$var wire 1 * ALU_opcode_differentiator $end
$var wire 1 + ALU_optype $end
$var wire 5 4 Instruction_to_ALU [4:0] $end
$var wire 1 - dat_ready $end
$var wire 1 . reset $end
$var wire 1 / soc_clk $end
$var wire 32 5 Shifter_out [31:0] $end
$var wire 32 6 LogOp_out [31:0] $end
$var wire 32 7 Comparator_out [31:0] $end
$var wire 1 8 Comparator_con_met $end
$var wire 1 9 AddSub_zero $end
$var wire 1 : AddSub_overflow $end
$var wire 32 ; AddSub_out [31:0] $end
$var reg 1 & ALU_con_met $end
$var reg 1 % ALU_err $end
$var reg 32 < ALU_out [31:0] $end
$var reg 1 # ALU_overflow $end
$var reg 1 " ALU_ready $end
$var reg 2 = ALU_result_counter [1:0] $end
$var reg 1 ! ALU_zero $end
$var reg 32 > reg_ALU_dat1 [31:0] $end
$var reg 32 ? reg_ALU_dat2 [31:0] $end
$var reg 3 @ reg_ALU_opcode [2:0] $end
$var reg 1 A reg_ALU_optype $end
$var reg 5 B reg_concat_op [4:0] $end
$scope module AS $end
$var wire 32 C ALU_dat1 [31:0] $end
$var wire 32 D ALU_dat2 [31:0] $end
$var wire 1 : AddSub_overflow $end
$var wire 1 9 AddSub_zero $end
$var wire 5 E Instruction_to_ALU [4:0] $end
$var wire 1 - dat_ready $end
$var wire 1 . reset $end
$var wire 1 / soc_clk $end
$var wire 32 F TC_dat2 [31:0] $end
$var wire 32 G AddSub_out [31:0] $end
$var wire 33 H AddSub_int [32:0] $end
$var reg 32 I RA_dat1 [31:0] $end
$var reg 32 J RA_dat2 [31:0] $end
$scope module RA $end
$var wire 32 K A [31:0] $end
$var wire 32 L B [31:0] $end
$var wire 32 M c [31:0] $end
$var wire 33 N SUM [32:0] $end
$scope begin FA_BITS[0] $end
$scope begin genblk2 $end
$scope module FA $end
$var wire 1 O a $end
$var wire 1 P ab $end
$var wire 1 Q axb $end
$var wire 1 R axbcin $end
$var wire 1 S b $end
$var wire 1 T cin $end
$var wire 1 U cout $end
$var wire 1 V sum $end
$upscope $end
$upscope $end
$upscope $end
$scope begin FA_BITS[1] $end
$scope begin genblk3 $end
$scope module FA $end
$var wire 1 W a $end
$var wire 1 X ab $end
$var wire 1 Y axb $end
$var wire 1 Z axbcin $end
$var wire 1 [ b $end
$var wire 1 \ cin $end
$var wire 1 ] cout $end
$var wire 1 ^ sum $end
$upscope $end
$upscope $end
$upscope $end
$scope begin FA_BITS[2] $end
$scope begin genblk3 $end
$scope module FA $end
$var wire 1 _ a $end
$var wire 1 ` ab $end
$var wire 1 a axb $end
$var wire 1 b axbcin $end
$var wire 1 c b $end
$var wire 1 d cin $end
$var wire 1 e cout $end
$var wire 1 f sum $end
$upscope $end
$upscope $end
$upscope $end
$scope begin FA_BITS[3] $end
$scope begin genblk3 $end
$scope module FA $end
$var wire 1 g a $end
$var wire 1 h ab $end
$var wire 1 i axb $end
$var wire 1 j axbcin $end
$var wire 1 k b $end
$var wire 1 l cin $end
$var wire 1 m cout $end
$var wire 1 n sum $end
$upscope $end
$upscope $end
$upscope $end
$scope begin FA_BITS[4] $end
$scope begin genblk3 $end
$scope module FA $end
$var wire 1 o a $end
$var wire 1 p ab $end
$var wire 1 q axb $end
$var wire 1 r axbcin $end
$var wire 1 s b $end
$var wire 1 t cin $end
$var wire 1 u cout $end
$var wire 1 v sum $end
$upscope $end
$upscope $end
$upscope $end
$scope begin FA_BITS[5] $end
$scope begin genblk3 $end
$scope module FA $end
$var wire 1 w a $end
$var wire 1 x ab $end
$var wire 1 y axb $end
$var wire 1 z axbcin $end
$var wire 1 { b $end
$var wire 1 | cin $end
$var wire 1 } cout $end
$var wire 1 ~ sum $end
$upscope $end
$upscope $end
$upscope $end
$scope begin FA_BITS[6] $end
$scope begin genblk3 $end
$scope module FA $end
$var wire 1 !" a $end
$var wire 1 "" ab $end
$var wire 1 #" axb $end
$var wire 1 $" axbcin $end
$var wire 1 %" b $end
$var wire 1 &" cin $end
$var wire 1 '" cout $end
$var wire 1 (" sum $end
$upscope $end
$upscope $end
$upscope $end
$scope begin FA_BITS[7] $end
$scope begin genblk3 $end
$scope module FA $end
$var wire 1 )" a $end
$var wire 1 *" ab $end
$var wire 1 +" axb $end
$var wire 1 ," axbcin $end
$var wire 1 -" b $end
$var wire 1 ." cin $end
$var wire 1 /" cout $end
$var wire 1 0" sum $end
$upscope $end
$upscope $end
$upscope $end
$scope begin FA_BITS[8] $end
$scope begin genblk3 $end
$scope module FA $end
$var wire 1 1" a $end
$var wire 1 2" ab $end
$var wire 1 3" axb $end
$var wire 1 4" axbcin $end
$var wire 1 5" b $end
$var wire 1 6" cin $end
$var wire 1 7" cout $end
$var wire 1 8" sum $end
$upscope $end
$upscope $end
$upscope $end
$scope begin FA_BITS[9] $end
$scope begin genblk3 $end
$scope module FA $end
$var wire 1 9" a $end
$var wire 1 :" ab $end
$var wire 1 ;" axb $end
$var wire 1 <" axbcin $end
$var wire 1 =" b $end
$var wire 1 >" cin $end
$var wire 1 ?" cout $end
$var wire 1 @" sum $end
$upscope $end
$upscope $end
$upscope $end
$scope begin FA_BITS[10] $end
$scope begin genblk3 $end
$scope module FA $end
$var wire 1 A" a $end
$var wire 1 B" ab $end
$var wire 1 C" axb $end
$var wire 1 D" axbcin $end
$var wire 1 E" b $end
$var wire 1 F" cin $end
$var wire 1 G" cout $end
$var wire 1 H" sum $end
$upscope $end
$upscope $end
$upscope $end
$scope begin FA_BITS[11] $end
$scope begin genblk3 $end
$scope module FA $end
$var wire 1 I" a $end
$var wire 1 J" ab $end
$var wire 1 K" axb $end
$var wire 1 L" axbcin $end
$var wire 1 M" b $end
$var wire 1 N" cin $end
$var wire 1 O" cout $end
$var wire 1 P" sum $end
$upscope $end
$upscope $end
$upscope $end
$scope begin FA_BITS[12] $end
$scope begin genblk3 $end
$scope module FA $end
$var wire 1 Q" a $end
$var wire 1 R" ab $end
$var wire 1 S" axb $end
$var wire 1 T" axbcin $end
$var wire 1 U" b $end
$var wire 1 V" cin $end
$var wire 1 W" cout $end
$var wire 1 X" sum $end
$upscope $end
$upscope $end
$upscope $end
$scope begin FA_BITS[13] $end
$scope begin genblk3 $end
$scope module FA $end
$var wire 1 Y" a $end
$var wire 1 Z" ab $end
$var wire 1 [" axb $end
$var wire 1 \" axbcin $end
$var wire 1 ]" b $end
$var wire 1 ^" cin $end
$var wire 1 _" cout $end
$var wire 1 `" sum $end
$upscope $end
$upscope $end
$upscope $end
$scope begin FA_BITS[14] $end
$scope begin genblk3 $end
$scope module FA $end
$var wire 1 a" a $end
$var wire 1 b" ab $end
$var wire 1 c" axb $end
$var wire 1 d" axbcin $end
$var wire 1 e" b $end
$var wire 1 f" cin $end
$var wire 1 g" cout $end
$var wire 1 h" sum $end
$upscope $end
$upscope $end
$upscope $end
$scope begin FA_BITS[15] $end
$scope begin genblk3 $end
$scope module FA $end
$var wire 1 i" a $end
$var wire 1 j" ab $end
$var wire 1 k" axb $end
$var wire 1 l" axbcin $end
$var wire 1 m" b $end
$var wire 1 n" cin $end
$var wire 1 o" cout $end
$var wire 1 p" sum $end
$upscope $end
$upscope $end
$upscope $end
$scope begin FA_BITS[16] $end
$scope begin genblk3 $end
$scope module FA $end
$var wire 1 q" a $end
$var wire 1 r" ab $end
$var wire 1 s" axb $end
$var wire 1 t" axbcin $end
$var wire 1 u" b $end
$var wire 1 v" cin $end
$var wire 1 w" cout $end
$var wire 1 x" sum $end
$upscope $end
$upscope $end
$upscope $end
$scope begin FA_BITS[17] $end
$scope begin genblk3 $end
$scope module FA $end
$var wire 1 y" a $end
$var wire 1 z" ab $end
$var wire 1 {" axb $end
$var wire 1 |" axbcin $end
$var wire 1 }" b $end
$var wire 1 ~" cin $end
$var wire 1 !# cout $end
$var wire 1 "# sum $end
$upscope $end
$upscope $end
$upscope $end
$scope begin FA_BITS[18] $end
$scope begin genblk3 $end
$scope module FA $end
$var wire 1 ## a $end
$var wire 1 $# ab $end
$var wire 1 %# axb $end
$var wire 1 &# axbcin $end
$var wire 1 '# b $end
$var wire 1 (# cin $end
$var wire 1 )# cout $end
$var wire 1 *# sum $end
$upscope $end
$upscope $end
$upscope $end
$scope begin FA_BITS[19] $end
$scope begin genblk3 $end
$scope module FA $end
$var wire 1 +# a $end
$var wire 1 ,# ab $end
$var wire 1 -# axb $end
$var wire 1 .# axbcin $end
$var wire 1 /# b $end
$var wire 1 0# cin $end
$var wire 1 1# cout $end
$var wire 1 2# sum $end
$upscope $end
$upscope $end
$upscope $end
$scope begin FA_BITS[20] $end
$scope begin genblk3 $end
$scope module FA $end
$var wire 1 3# a $end
$var wire 1 4# ab $end
$var wire 1 5# axb $end
$var wire 1 6# axbcin $end
$var wire 1 7# b $end
$var wire 1 8# cin $end
$var wire 1 9# cout $end
$var wire 1 :# sum $end
$upscope $end
$upscope $end
$upscope $end
$scope begin FA_BITS[21] $end
$scope begin genblk3 $end
$scope module FA $end
$var wire 1 ;# a $end
$var wire 1 <# ab $end
$var wire 1 =# axb $end
$var wire 1 ># axbcin $end
$var wire 1 ?# b $end
$var wire 1 @# cin $end
$var wire 1 A# cout $end
$var wire 1 B# sum $end
$upscope $end
$upscope $end
$upscope $end
$scope begin FA_BITS[22] $end
$scope begin genblk3 $end
$scope module FA $end
$var wire 1 C# a $end
$var wire 1 D# ab $end
$var wire 1 E# axb $end
$var wire 1 F# axbcin $end
$var wire 1 G# b $end
$var wire 1 H# cin $end
$var wire 1 I# cout $end
$var wire 1 J# sum $end
$upscope $end
$upscope $end
$upscope $end
$scope begin FA_BITS[23] $end
$scope begin genblk3 $end
$scope module FA $end
$var wire 1 K# a $end
$var wire 1 L# ab $end
$var wire 1 M# axb $end
$var wire 1 N# axbcin $end
$var wire 1 O# b $end
$var wire 1 P# cin $end
$var wire 1 Q# cout $end
$var wire 1 R# sum $end
$upscope $end
$upscope $end
$upscope $end
$scope begin FA_BITS[24] $end
$scope begin genblk3 $end
$scope module FA $end
$var wire 1 S# a $end
$var wire 1 T# ab $end
$var wire 1 U# axb $end
$var wire 1 V# axbcin $end
$var wire 1 W# b $end
$var wire 1 X# cin $end
$var wire 1 Y# cout $end
$var wire 1 Z# sum $end
$upscope $end
$upscope $end
$upscope $end
$scope begin FA_BITS[25] $end
$scope begin genblk3 $end
$scope module FA $end
$var wire 1 [# a $end
$var wire 1 \# ab $end
$var wire 1 ]# axb $end
$var wire 1 ^# axbcin $end
$var wire 1 _# b $end
$var wire 1 `# cin $end
$var wire 1 a# cout $end
$var wire 1 b# sum $end
$upscope $end
$upscope $end
$upscope $end
$scope begin FA_BITS[26] $end
$scope begin genblk3 $end
$scope module FA $end
$var wire 1 c# a $end
$var wire 1 d# ab $end
$var wire 1 e# axb $end
$var wire 1 f# axbcin $end
$var wire 1 g# b $end
$var wire 1 h# cin $end
$var wire 1 i# cout $end
$var wire 1 j# sum $end
$upscope $end
$upscope $end
$upscope $end
$scope begin FA_BITS[27] $end
$scope begin genblk3 $end
$scope module FA $end
$var wire 1 k# a $end
$var wire 1 l# ab $end
$var wire 1 m# axb $end
$var wire 1 n# axbcin $end
$var wire 1 o# b $end
$var wire 1 p# cin $end
$var wire 1 q# cout $end
$var wire 1 r# sum $end
$upscope $end
$upscope $end
$upscope $end
$scope begin FA_BITS[28] $end
$scope begin genblk3 $end
$scope module FA $end
$var wire 1 s# a $end
$var wire 1 t# ab $end
$var wire 1 u# axb $end
$var wire 1 v# axbcin $end
$var wire 1 w# b $end
$var wire 1 x# cin $end
$var wire 1 y# cout $end
$var wire 1 z# sum $end
$upscope $end
$upscope $end
$upscope $end
$scope begin FA_BITS[29] $end
$scope begin genblk3 $end
$scope module FA $end
$var wire 1 {# a $end
$var wire 1 |# ab $end
$var wire 1 }# axb $end
$var wire 1 ~# axbcin $end
$var wire 1 !$ b $end
$var wire 1 "$ cin $end
$var wire 1 #$ cout $end
$var wire 1 $$ sum $end
$upscope $end
$upscope $end
$upscope $end
$scope begin FA_BITS[30] $end
$scope begin genblk3 $end
$scope module FA $end
$var wire 1 %$ a $end
$var wire 1 &$ ab $end
$var wire 1 '$ axb $end
$var wire 1 ($ axbcin $end
$var wire 1 )$ b $end
$var wire 1 *$ cin $end
$var wire 1 +$ cout $end
$var wire 1 ,$ sum $end
$upscope $end
$upscope $end
$upscope $end
$scope begin FA_BITS[31] $end
$scope begin genblk3 $end
$scope module FA $end
$var wire 1 -$ a $end
$var wire 1 .$ ab $end
$var wire 1 /$ axb $end
$var wire 1 0$ axbcin $end
$var wire 1 1$ b $end
$var wire 1 2$ cin $end
$var wire 1 3$ cout $end
$var wire 1 4$ sum $end
$upscope $end
$upscope $end
$upscope $end
$upscope $end
$scope module TC $end
$var wire 32 5$ in [31:0] $end
$var wire 32 6$ out [31:0] $end
$upscope $end
$upscope $end
$scope module C $end
$var wire 32 7$ ALU_dat1 [31:0] $end
$var wire 32 8$ ALU_dat2 [31:0] $end
$var wire 5 9$ Instruction_to_ALU [4:0] $end
$var wire 1 - dat_ready $end
$var wire 1 . reset $end
$var wire 1 / soc_clk $end
$var reg 1 8 Comparator_con_met $end
$var reg 32 :$ Comparator_out [31:0] $end
$upscope $end
$scope module LO $end
$var wire 32 ;$ ALU_dat1 [31:0] $end
$var wire 32 <$ ALU_dat2 [31:0] $end
$var wire 5 =$ Instruction_to_ALU [4:0] $end
$var wire 1 - dat_ready $end
$var wire 1 . reset $end
$var wire 1 / soc_clk $end
$var reg 32 >$ LogOp_out [31:0] $end
$upscope $end
$scope module S $end
$var wire 32 ?$ ALU_dat1 [31:0] $end
$var wire 32 @$ ALU_dat2 [31:0] $end
$var wire 5 A$ Instruction_to_ALU [4:0] $end
$var wire 1 - dat_ready $end
$var wire 1 . reset $end
$var wire 1 / soc_clk $end
$var reg 32 B$ Shifter_out [31:0] $end
$upscope $end
$upscope $end
$scope task test_alu_operation $end
$var reg 5 C$ instr [4:0] $end
$var reg 32 D$ operand1 [31:0] $end
$var reg 32 E$ operand2 [31:0] $end
$upscope $end
$upscope $end
$enddefinitions $end
#0
$dumpvars
bx E$
bx D$
bx C$
bx B$
b10000 A$
b0 @$
b0 ?$
bx >$
b10000 =$
b0 <$
b0 ;$
b0 :$
b10000 9$
b0 8$
b0 7$
b0 6$
b0 5$
x4$
x3$
x2$
x1$
x0$
x/$
x.$
x-$
x,$
x+$
x*$
x)$
x($
x'$
x&$
x%$
x$$
x#$
x"$
x!$
x~#
x}#
x|#
x{#
xz#
xy#
xx#
xw#
xv#
xu#
xt#
xs#
xr#
xq#
xp#
xo#
xn#
xm#
xl#
xk#
xj#
xi#
xh#
xg#
xf#
xe#
xd#
xc#
xb#
xa#
x`#
x_#
x^#
x]#
x\#
x[#
xZ#
xY#
xX#
xW#
xV#
xU#
xT#
xS#
xR#
xQ#
xP#
xO#
xN#
xM#
xL#
xK#
xJ#
xI#
xH#
xG#
xF#
xE#
xD#
xC#
xB#
xA#
x@#
x?#
x>#
x=#
x<#
x;#
x:#
x9#
x8#
x7#
x6#
x5#
x4#
x3#
x2#
x1#
x0#
x/#
x.#
x-#
x,#
x+#
x*#
x)#
x(#
x'#
x&#
x%#
x$#
x##
x"#
x!#
x~"
x}"
x|"
x{"
xz"
xy"
xx"
xw"
xv"
xu"
xt"
xs"
xr"
xq"
xp"
xo"
xn"
xm"
xl"
xk"
xj"
xi"
xh"
xg"
xf"
xe"
xd"
xc"
xb"
xa"
x`"
x_"
x^"
x]"
x\"
x["
xZ"
xY"
xX"
xW"
xV"
xU"
xT"
xS"
xR"
xQ"
xP"
xO"
xN"
xM"
xL"
xK"
xJ"
xI"
xH"
xG"
xF"
xE"
xD"
xC"
xB"
xA"
x@"
x?"
x>"
x="
x<"
x;"
x:"
x9"
x8"
x7"
x6"
x5"
x4"
x3"
x2"
x1"
x0"
x/"
x."
x-"
x,"
x+"
x*"
x)"
x("
x'"
x&"
x%"
x$"
x#"
x""
x!"
x~
x}
x|
x{
xz
xy
xx
xw
xv
xu
xt
xs
xr
xq
xp
xo
xn
xm
xl
xk
xj
xi
xh
xg
xf
xe
xd
xc
xb
xa
x`
x_
x^
x]
x\
x[
xZ
xY
xX
xW
xV
xU
0T
xS
0R
xQ
xP
xO
bx N
bx M
bx L
bx K
bx J
bx I
bx H
bx G
b0 F
b10000 E
b0 D
b0 C
b0 B
0A
b0 @
b0 ?
b0 >
b0 =
b0 <
bx ;
x:
x9
08
b0 7
bx 6
bx 5
b10000 4
b0 3
b0 2
b0 1
b0 0
0/
1.
0-
b10000 ,
0+
0*
b0 )
b0 (
b0 '
0&
0%
b0 $
0#
x"
0!
$end
#5000
19
0f
0n
0v
0~
0("
00"
08"
0@"
0H"
0P"
0X"
0`"
0h"
0p"
0x"
0"#
0*#
02#
0:#
0B#
0J#
0R#
0Z#
0b#
0j#
0r#
0z#
0$$
0,$
04$
0^
0d
0l
0t
0|
0&"
0."
06"
0>"
0F"
0N"
0V"
0^"
0f"
0n"
0v"
0~"
0(#
00#
08#
0@#
0H#
0P#
0X#
0`#
0h#
0p#
0x#
0"$
0*$
02$
0:
b0 ;
b0 G
0\
0]
0e
0m
0u
0}
0'"
0/"
07"
0?"
0G"
0O"
0W"
0_"
0g"
0o"
0w"
0!#
0)#
01#
09#
0A#
0I#
0Q#
0Y#
0a#
0i#
0q#
0y#
0#$
0+$
03$
b0 H
b0 N
0V
b0 M
0U
0Z
0b
0j
0r
0z
0$"
0,"
04"
0<"
0D"
0L"
0T"
0\"
0d"
0l"
0t"
0|"
0&#
0.#
06#
0>#
0F#
0N#
0V#
0^#
0f#
0n#
0v#
0~#
0($
00$
0Q
0P
0Y
0X
0a
0`
0i
0h
0q
0p
0y
0x
0#"
0""
0+"
0*"
03"
02"
0;"
0:"
0C"
0B"
0K"
0J"
0S"
0R"
0["
0Z"
0c"
0b"
0k"
0j"
0s"
0r"
0{"
0z"
0%#
0$#
0-#
0,#
05#
04#
0=#
0<#
0E#
0D#
0M#
0L#
0U#
0T#
0]#
0\#
0e#
0d#
0m#
0l#
0u#
0t#
0}#
0|#
0'$
0&$
0/$
0.$
0S
0[
0c
0k
0s
0{
0%"
0-"
05"
0="
0E"
0M"
0U"
0]"
0e"
0m"
0u"
0}"
0'#
0/#
07#
0?#
0G#
0O#
0W#
0_#
0g#
0o#
0w#
0!$
0)$
01$
0O
0W
0_
0g
0o
0w
0!"
0)"
01"
09"
0A"
0I"
0Q"
0Y"
0a"
0i"
0q"
0y"
0##
0+#
03#
0;#
0C#
0K#
0S#
0[#
0c#
0k#
0s#
0{#
0%$
0-$
b0 J
b0 L
b0 I
b0 K
b0 6
b0 >$
b0 5
b0 B$
1/
#10000
0/
#15000
1/
#20000
0/
0.
#25000
1/
#30000
0/
b1 0
b11 E$
b101 D$
b110 C$
#35000
b11111111111111111111111111111101 F
b11111111111111111111111111111101 6$
b11 ?
b11 D
b11 5$
b11 8$
b11 <$
b11 @$
b101 >
b101 C
b101 7$
b101 ;$
b101 ?$
b1 =
1-
b11 (
b11 2
b101 '
b101 1
b110 ,
b110 4
b110 E
b110 9$
b110 =$
b110 A$
1/
#40000
0/
#45000
1n
1l
1e
1b
1d
1]
1Z
09
1\
b1000 ;
b1000 G
0^
b111 M
1U
b1000 H
b1000 N
0f
1Y
1P
1a
1S
1[
1O
1_
b11 J
b11 L
b101 I
b101 K
b10 =
1/
#50000
0/
#55000
b11 =
1/
#60000
0/
#65000
b0 =
b1000 $
b1000 <
1/
#70000
0/
#75000
19
0n
0d
0l
0]
0\
b0 ;
b0 G
0e
0^
0Z
b0 M
0U
b0 H
b0 N
0f
0b
0Y
0P
0a
0S
0[
0O
0_
b0 J
b0 L
b0 I
b0 K
0-
1/
#80000
0/
#85000
1/
#90000
0/
#95000
13$
10$
12$
1+$
1($
1*$
1#$
1~#
1"$
1y#
1v#
1x#
1q#
1n#
1p#
1i#
1f#
1h#
1a#
1^#
1`#
1Y#
1V#
1X#
1Q#
1N#
1P#
1I#
1F#
1H#
1A#
1>#
1@#
19#
16#
18#
11#
1.#
10#
1)#
1&#
1(#
1!#
1|"
1~"
1w"
1t"
1v"
1o"
1l"
1n"
1g"
1d"
1f"
1_"
1\"
1^"
1W"
1T"
1V"
1O"
1L"
1N"
1G"
1D"
1F"
1?"
1<"
1>"
17"
14"
16"
1/"
1,"
1."
1'"
1$"
1&"
1}
1z
1|
1u
1r
1t
0:
1m
09
1^
1j
b10 ;
b10 G
1\
1l
0n
0v
0~
0("
00"
08"
0@"
0H"
0P"
0X"
0`"
0h"
0p"
0x"
0"#
0*#
02#
0:#
0B#
0J#
0R#
0Z#
0b#
0j#
0r#
0z#
0$$
0,$
b100000000000000000000000000000010 H
b100000000000000000000000000000010 N
04$
1U
b11111111111111111111111111111101 M
1e
1i
1q
1y
1#"
1+"
13"
1;"
1C"
1K"
1S"
1["
1c"
1k"
1s"
1{"
1%#
1-#
15#
1=#
1E#
1M#
1U#
1]#
1e#
1m#
1u#
1}#
1'$
1/$
1P
1`
1S
1c
1k
1s
1{
1%"
1-"
15"
1="
1E"
1M"
1U"
1]"
1e"
1m"
1u"
1}"
1'#
1/#
17#
1?#
1G#
1O#
1W#
1_#
1g#
1o#
1w#
1!$
1)$
11$
1O
1_
b1 =
b0 $
b0 <
b11111111111111111111111111111101 J
b11111111111111111111111111111101 L
b101 I
b101 K
1-
b111 ,
b111 4
b111 E
b111 9$
b111 =$
b111 A$
1/
b10 0
b111 C$
#100000
0/
#105000
b10 =
1/
#110000
0/
#115000
b11 =
1/
#120000
0/
#125000
b0 =
b10 $
b10 <
1/
#130000
0/
#135000
19
0t
0|
0&"
0."
06"
0>"
0F"
0N"
0V"
0^"
0f"
0n"
0v"
0~"
0(#
00#
08#
0@#
0H#
0P#
0X#
0`#
0h#
0p#
0x#
0"$
0*$
02$
0^
0m
0u
0}
0'"
0/"
07"
0?"
0G"
0O"
0W"
0_"
0g"
0o"
0w"
0!#
0)#
01#
09#
0A#
0I#
0Q#
0Y#
0a#
0i#
0q#
0y#
0#$
0+$
b0 ;
b0 G
03$
0\
0l
0n
0j
0v
0r
0~
0z
0("
0$"
00"
0,"
08"
04"
0@"
0<"
0H"
0D"
0P"
0L"
0X"
0T"
0`"
0\"
0h"
0d"
0p"
0l"
0x"
0t"
0"#
0|"
0*#
0&#
02#
0.#
0:#
06#
0B#
0>#
0J#
0F#
0R#
0N#
0Z#
0V#
0b#
0^#
0j#
0f#
0r#
0n#
0z#
0v#
0$$
0~#
0,$
0($
b0 H
b0 N
04$
00$
0U
b0 M
0e
0i
0q
0y
0#"
0+"
03"
0;"
0C"
0K"
0S"
0["
0c"
0k"
0s"
0{"
0%#
0-#
05#
0=#
0E#
0M#
0U#
0]#
0e#
0m#
0u#
0}#
0'$
0/$
0P
0`
0S
0c
0k
0s
0{
0%"
0-"
05"
0="
0E"
0M"
0U"
0]"
0e"
0m"
0u"
0}"
0'#
0/#
07#
0?#
0G#
0O#
0W#
0_#
0g#
0o#
0w#
0!$
0)$
01$
0O
0_
b0 J
b0 L
b0 I
b0 K
0-
1/
#140000
0/
#145000
1/
#150000
0/
#155000
b11111111111111111111111111111110 F
b11111111111111111111111111111110 6$
b10 ?
b10 D
b10 5$
b10 8$
b10 <$
b10 @$
b11 >
b11 C
b11 7$
b11 ;$
b11 ?$
b1 =
b0 $
b0 <
b101000 5
b101000 B$
1-
b10 (
b10 2
b11 '
b11 1
b1000 ,
b1000 4
b1000 E
b1000 9$
b1000 =$
b1000 A$
1/
b11 0
b10 E$
b11 D$
b1000 C$
#160000
0/
#165000
b1100 5
b1100 B$
b10 =
1/
#170000
0/
#175000
b11 =
1/
#180000
0/
#185000
b0 =
b1100 $
b1100 <
1/
#190000
0/
#195000
b0 5
b0 B$
0-
1/
#200000
0/
#205000
1/
#210000
0/
#215000
b11111111111111111111111111111011 F
b11111111111111111111111111111011 6$
b101 ?
b101 D
b101 5$
b101 8$
b101 <$
b101 @$
b1 =
b0 $
b0 <
1-
b101 (
b101 2
b1001 ,
b1001 4
b1001 E
b1001 9$
b1001 =$
b1001 A$
1/
b100 0
b101 E$
b1001 C$
#220000
0/
#225000
18
b1 7
b1 :$
b10 =
1/
#230000
0/
#235000
b11 =
1/
#240000
0/
#245000
b0 =
1&
b1 $
b1 <
1/
#250000
0/
#255000
b0 7
b0 :$
08
0-
1/
#260000
0/
#265000
1/
#270000
0/
#275000
b11111111111111111111111111111111 F
b11111111111111111111111111111111 6$
b1 ?
b1 D
b1 5$
b1 8$
b1 <$
b1 @$
b11111111111111111111111111111111 >
b11111111111111111111111111111111 C
b11111111111111111111111111111111 7$
b11111111111111111111111111111111 ;$
b11111111111111111111111111111111 ?$
b1 =
0&
b0 $
b0 <
b1 7
b1 :$
18
1-
b1 (
b1 2
b11111111111111111111111111111111 '
b11111111111111111111111111111111 1
b1010 ,
b1010 4
b1010 E
b1010 9$
b1010 =$
b1010 A$
1/
b101 0
b1 E$
b11111111111111111111111111111111 D$
b1010 C$
#280000
0/
#285000
08
b0 7
b0 :$
b10 =
1/
#290000
0/
#295000
b11 =
1/
#300000
0/
#305000
b0 =
1/
#310000
0/
#315000
0-
1/
#320000
0/
#325000
1/
#330000
0/
#335000
b111111110000000100000000 F
b111111110000000100000000 6$
b11111111000000001111111100000000 ?
b11111111000000001111111100000000 D
b11111111000000001111111100000000 5$
b11111111000000001111111100000000 8$
b11111111000000001111111100000000 <$
b11111111000000001111111100000000 @$
b1111000011110000111100001111 >
b1111000011110000111100001111 C
b1111000011110000111100001111 7$
b1111000011110000111100001111 ;$
b1111000011110000111100001111 ?$
b1 =
b11111111111111111111111111111110 6
b11111111111111111111111111111110 >$
1-
b11111111000000001111111100000000 (
b11111111000000001111111100000000 2
b1111000011110000111100001111 '
b1111000011110000111100001111 1
b1011 ,
b1011 4
b1011 E
b1011 9$
b1011 =$
b1011 A$
1/
b110 0
b11111111000000001111111100000000 E$
b1111000011110000111100001111 D$
b1011 C$
#340000
0/
#345000
b11110000000011111111000000001111 6
b11110000000011111111000000001111 >$
b10 =
1/
#350000
0/
#355000
b11 =
1/
#360000
0/
#365000
b0 =
b11110000000011111111000000001111 $
b11110000000011111111000000001111 <
1/
#370000
0/
#375000
b0 6
b0 >$
0-
1/
#380000
0/
#385000
1/
#390000
0/
#395000
b11111111111111111111111111111100 F
b11111111111111111111111111111100 6$
b100 ?
b100 D
b100 5$
b100 8$
b100 <$
b100 @$
b11110000000000000000000000000000 >
b11110000000000000000000000000000 C
b11110000000000000000000000000000 7$
b11110000000000000000000000000000 ;$
b11110000000000000000000000000000 ?$
b1 =
b0 $
b0 <
b1111000011110000111100001111 5
b1111000011110000111100001111 B$
1-
b100 (
b100 2
b11110000000000000000000000000000 '
b11110000000000000000000000000000 1
b1100 ,
b1100 4
b1100 E
b1100 9$
b1100 =$
b1100 A$
1/
b111 0
b100 E$
b11110000000000000000000000000000 D$
b1100 C$
#400000
0/
#405000
b1111000000000000000000000000 5
b1111000000000000000000000000 B$
b10 =
1/
#410000
0/
#415000
b11 =
1/
#420000
0/
#425000
b0 =
b1111000000000000000000000000 $
b1111000000000000000000000000 <
1/
#430000
0/
#435000
b0 5
b0 B$
0-
1/
#440000
0/
#445000
1/
#450000
0/
#455000
b1 =
b0 $
b0 <
b11111111000000000000000000000000 5
b11111111000000000000000000000000 B$
1-
b1101 ,
b1101 4
b1101 E
b1101 9$
b1101 =$
b1101 A$
1/
b1000 0
b1101 C$
#460000
0/
#465000
b10 =
1/
#470000
0/
#475000
b11 =
1/
#480000
0/
#485000
b0 =
b11111111000000000000000000000000 $
b11111111000000000000000000000000 <
1/
#490000
0/
#495000
b0 5
b0 B$
0-
1/
#500000
0/
#505000
1/
#510000
0/
#515000
b111111110000000100000000 F
b111111110000000100000000 6$
b11111111000000001111111100000000 ?
b11111111000000001111111100000000 D
b11111111000000001111111100000000 5$
b11111111000000001111111100000000 8$
b11111111000000001111111100000000 <$
b11111111000000001111111100000000 @$
b1111000011110000111100001111 >
b1111000011110000111100001111 C
b1111000011110000111100001111 7$
b1111000011110000111100001111 ;$
b1111000011110000111100001111 ?$
b1 =
b0 $
b0 <
b11110000000000000000000000000100 6
b11110000000000000000000000000100 >$
1-
b11111111000000001111111100000000 (
b11111111000000001111111100000000 2
b1111000011110000111100001111 '
b1111000011110000111100001111 1
b1110 ,
b1110 4
b1110 E
b1110 9$
b1110 =$
b1110 A$
1/
b1001 0
b11111111000000001111111100000000 E$
b1111000011110000111100001111 D$
b1110 C$
#520000
0/
#525000
b11111111000011111111111100001111 6
b11111111000011111111111100001111 >$
b10 =
1/
#530000
0/
#535000
b11 =
1/
#540000
0/
#545000
b0 =
b11111111000011111111111100001111 $
b11111111000011111111111100001111 <
1/
#550000
0/
#555000
b0 6
b0 >$
0-
1/
#560000
0/
#565000
1/
#570000
0/
