Testbench/alu_wave.vcd
$date
	Fri Dec 26 14:45:54 2025
$end
$version
	Icarus Verilog
$end
$timescale
	1ps
$end
$scope module tb_alu $end
$var wire 1 ! ALU_zero $end
$var wire 1 " ALU_ready $end
$var wire 1 # ALU_overflow $end
$var wire 32 $ ALU_out [31:0] $end
$var wire 1 % ALU_err $end
$var wire 1 & ALU_con_met $end
$var wire 1 ' ALU_accept $end
$var reg 32 ( ALU_dat1 [31:0] $end
$var reg 32 ) ALU_dat2 [31:0] $end
$var reg 6 * Instruction_from_CU [5:0] $end
$var reg 1 + dat_ready $end
$var reg 1 , reset $end
$var reg 1 - soc_clk $end
$scope module dut $end
$var wire 32 . ALU_dat1 [31:0] $end
$var wire 32 / ALU_dat2 [31:0] $end
$var wire 6 0 Instruction_from_CU [5:0] $end
$var wire 1 , reset $end
$var wire 1 - soc_clk $end
$var wire 32 1 Shifter_out [31:0] $end
$var wire 32 2 LogOp_out [31:0] $end
$var wire 32 3 Comparator_out [31:0] $end
$var wire 1 4 Comparator_con_met $end
$var wire 1 5 AddSub_overflow $end
$var wire 32 6 AddSub_out [31:0] $end
$var wire 1 ' ALU_accept $end
$var reg 1 & ALU_con_met $end
$var reg 1 % ALU_err $end
$var reg 32 7 ALU_out [31:0] $end
$var reg 1 # ALU_overflow $end
$var reg 1 " ALU_ready $end
$var reg 2 8 ALU_result_counter [1:0] $end
$var reg 1 ! ALU_zero $end
$var reg 5 9 Instruction_to_ALU [4:0] $end
$var reg 32 : reg_ALU_dat1 [31:0] $end
$var reg 32 ; reg_ALU_dat2 [31:0] $end
$scope module AS $end
$var wire 32 < ALU_dat1 [31:0] $end
$var wire 32 = ALU_dat2 [31:0] $end
$var wire 5 > Instruction_to_ALU [4:0] $end
$var wire 32 ? RA_dat1 [31:0] $end
$var wire 1 @ reset $end
$var wire 1 A soc_clk $end
$var wire 32 B TC_dat2 [31:0] $end
$var wire 32 C RA_dat2 [31:0] $end
$var wire 1 5 AddSub_overflow $end
$var wire 32 D AddSub_out [31:0] $end
$var wire 33 E AddSub_int [32:0] $end
$scope module RA $end
$var wire 32 F A [31:0] $end
$var wire 32 G B [31:0] $end
$var wire 32 H c [31:0] $end
$var wire 33 I SUM [32:0] $end
$scope begin FA_BITS[0] $end
$var parameter 2 J i $end
$scope begin genblk1 $end
$scope module FA $end
$var wire 1 K a $end
$var wire 1 L ab $end
$var wire 1 M axb $end
$var wire 1 N axbcin $end
$var wire 1 O b $end
$var wire 1 P cin $end
$var wire 1 Q cout $end
$var wire 1 R sum $end
$upscope $end
$upscope $end
$upscope $end
$scope begin FA_BITS[1] $end
$var parameter 2 S i $end
$scope begin genblk1 $end
$scope module FA $end
$var wire 1 T a $end
$var wire 1 U ab $end
$var wire 1 V axb $end
$var wire 1 W axbcin $end
$var wire 1 X b $end
$var wire 1 Y cin $end
$var wire 1 Z cout $end
$var wire 1 [ sum $end
$upscope $end
$upscope $end
$upscope $end
$scope begin FA_BITS[2] $end
$var parameter 3 \ i $end
$scope begin genblk1 $end
$scope module FA $end
$var wire 1 ] a $end
$var wire 1 ^ ab $end
$var wire 1 _ axb $end
$var wire 1 ` axbcin $end
$var wire 1 a b $end
$var wire 1 b cin $end
$var wire 1 c cout $end
$var wire 1 d sum $end
$upscope $end
$upscope $end
$upscope $end
$scope begin FA_BITS[3] $end
$var parameter 3 e i $end
$scope begin genblk1 $end
$scope module FA $end
$var wire 1 f a $end
$var wire 1 g ab $end
$var wire 1 h axb $end
$var wire 1 i axbcin $end
$var wire 1 j b $end
$var wire 1 k cin $end
$var wire 1 l cout $end
$var wire 1 m sum $end
$upscope $end
$upscope $end
$upscope $end
$scope begin FA_BITS[4] $end
$var parameter 4 n i $end
$scope begin genblk1 $end
$scope module FA $end
$var wire 1 o a $end
$var wire 1 p ab $end
$var wire 1 q axb $end
$var wire 1 r axbcin $end
$var wire 1 s b $end
$var wire 1 t cin $end
$var wire 1 u cout $end
$var wire 1 v sum $end
$upscope $end
$upscope $end
$upscope $end
$scope begin FA_BITS[5] $end
$var parameter 4 w i $end
$scope begin genblk1 $end
$scope module FA $end
$var wire 1 x a $end
$var wire 1 y ab $end
$var wire 1 z axb $end
$var wire 1 { axbcin $end
$var wire 1 | b $end
$var wire 1 } cin $end
$var wire 1 ~ cout $end
$var wire 1 !" sum $end
$upscope $end
$upscope $end
$upscope $end
$scope begin FA_BITS[6] $end
$var parameter 4 "" i $end
$scope begin genblk1 $end
$scope module FA $end
$var wire 1 #" a $end
$var wire 1 $" ab $end
$var wire 1 %" axb $end
$var wire 1 &" axbcin $end
$var wire 1 '" b $end
$var wire 1 (" cin $end
$var wire 1 )" cout $end
$var wire 1 *" sum $end
$upscope $end
$upscope $end
$upscope $end
$scope begin FA_BITS[7] $end
$var parameter 4 +" i $end
$scope begin genblk1 $end
$scope module FA $end
$var wire 1 ," a $end
$var wire 1 -" ab $end
$var wire 1 ." axb $end
$var wire 1 /" axbcin $end
$var wire 1 0" b $end
$var wire 1 1" cin $end
$var wire 1 2" cout $end
$var wire 1 3" sum $end
$upscope $end
$upscope $end
$upscope $end
$scope begin FA_BITS[8] $end
$var parameter 5 4" i $end
$scope begin genblk1 $end
$scope module FA $end
$var wire 1 5" a $end
$var wire 1 6" ab $end
$var wire 1 7" axb $end
$var wire 1 8" axbcin $end
$var wire 1 9" b $end
$var wire 1 :" cin $end
$var wire 1 ;" cout $end
$var wire 1 <" sum $end
$upscope $end
$upscope $end
$upscope $end
$scope begin FA_BITS[9] $end
$var parameter 5 =" i $end
$scope begin genblk1 $end
$scope module FA $end
$var wire 1 >" a $end
$var wire 1 ?" ab $end
$var wire 1 @" axb $end
$var wire 1 A" axbcin $end
$var wire 1 B" b $end
$var wire 1 C" cin $end
$var wire 1 D" cout $end
$var wire 1 E" sum $end
$upscope $end
$upscope $end
$upscope $end
$scope begin FA_BITS[10] $end
$var parameter 5 F" i $end
$scope begin genblk1 $end
$scope module FA $end
$var wire 1 G" a $end
$var wire 1 H" ab $end
$var wire 1 I" axb $end
$var wire 1 J" axbcin $end
$var wire 1 K" b $end
$var wire 1 L" cin $end
$var wire 1 M" cout $end
$var wire 1 N" sum $end
$upscope $end
$upscope $end
$upscope $end
$scope begin FA_BITS[11] $end
$var parameter 5 O" i $end
$scope begin genblk1 $end
$scope module FA $end
$var wire 1 P" a $end
$var wire 1 Q" ab $end
$var wire 1 R" axb $end
$var wire 1 S" axbcin $end
$var wire 1 T" b $end
$var wire 1 U" cin $end
$var wire 1 V" cout $end
$var wire 1 W" sum $end
$upscope $end
$upscope $end
$upscope $end
$scope begin FA_BITS[12] $end
$var parameter 5 X" i $end
$scope begin genblk1 $end
$scope module FA $end
$var wire 1 Y" a $end
$var wire 1 Z" ab $end
$var wire 1 [" axb $end
$var wire 1 \" axbcin $end
$var wire 1 ]" b $end
$var wire 1 ^" cin $end
$var wire 1 _" cout $end
$var wire 1 `" sum $end
$upscope $end
$upscope $end
$upscope $end
$scope begin FA_BITS[13] $end
$var parameter 5 a" i $end
$scope begin genblk1 $end
$scope module FA $end
$var wire 1 b" a $end
$var wire 1 c" ab $end
$var wire 1 d" axb $end
$var wire 1 e" axbcin $end
$var wire 1 f" b $end
$var wire 1 g" cin $end
$var wire 1 h" cout $end
$var wire 1 i" sum $end
$upscope $end
$upscope $end
$upscope $end
$scope begin FA_BITS[14] $end
$var parameter 5 j" i $end
$scope begin genblk1 $end
$scope module FA $end
$var wire 1 k" a $end
$var wire 1 l" ab $end
$var wire 1 m" axb $end
$var wire 1 n" axbcin $end
$var wire 1 o" b $end
$var wire 1 p" cin $end
$var wire 1 q" cout $end
$var wire 1 r" sum $end
$upscope $end
$upscope $end
$upscope $end
$scope begin FA_BITS[15] $end
$var parameter 5 s" i $end
$scope begin genblk1 $end
$scope module FA $end
$var wire 1 t" a $end
$var wire 1 u" ab $end
$var wire 1 v" axb $end
$var wire 1 w" axbcin $end
$var wire 1 x" b $end
$var wire 1 y" cin $end
$var wire 1 z" cout $end
$var wire 1 {" sum $end
$upscope $end
$upscope $end
$upscope $end
$scope begin FA_BITS[16] $end
$var parameter 6 |" i $end
$scope begin genblk1 $end
$scope module FA $end
$var wire 1 }" a $end
$var wire 1 ~" ab $end
$var wire 1 !# axb $end
$var wire 1 "# axbcin $end
$var wire 1 ## b $end
$var wire 1 $# cin $end
$var wire 1 %# cout $end
$var wire 1 &# sum $end
$upscope $end
$upscope $end
$upscope $end
$scope begin FA_BITS[17] $end
$var parameter 6 '# i $end
$scope begin genblk1 $end
$scope module FA $end
$var wire 1 (# a $end
$var wire 1 )# ab $end
$var wire 1 *# axb $end
$var wire 1 +# axbcin $end
$var wire 1 ,# b $end
$var wire 1 -# cin $end
$var wire 1 .# cout $end
$var wire 1 /# sum $end
$upscope $end
$upscope $end
$upscope $end
$scope begin FA_BITS[18] $end
$var parameter 6 0# i $end
$scope begin genblk1 $end
$scope module FA $end
$var wire 1 1# a $end
$var wire 1 2# ab $end
$var wire 1 3# axb $end
$var wire 1 4# axbcin $end
$var wire 1 5# b $end
$var wire 1 6# cin $end
$var wire 1 7# cout $end
$var wire 1 8# sum $end
$upscope $end
$upscope $end
$upscope $end
$scope begin FA_BITS[19] $end
$var parameter 6 9# i $end
$scope begin genblk1 $end
$scope module FA $end
$var wire 1 :# a $end
$var wire 1 ;# ab $end
$var wire 1 <# axb $end
$var wire 1 =# axbcin $end
$var wire 1 ># b $end
$var wire 1 ?# cin $end
$var wire 1 @# cout $end
$var wire 1 A# sum $end
$upscope $end
$upscope $end
$upscope $end
$scope begin FA_BITS[20] $end
$var parameter 6 B# i $end
$scope begin genblk1 $end
$scope module FA $end
$var wire 1 C# a $end
$var wire 1 D# ab $end
$var wire 1 E# axb $end
$var wire 1 F# axbcin $end
$var wire 1 G# b $end
$var wire 1 H# cin $end
$var wire 1 I# cout $end
$var wire 1 J# sum $end
$upscope $end
$upscope $end
$upscope $end
$scope begin FA_BITS[21] $end
$var parameter 6 K# i $end
$scope begin genblk1 $end
$scope module FA $end
$var wire 1 L# a $end
$var wire 1 M# ab $end
$var wire 1 N# axb $end
$var wire 1 O# axbcin $end
$var wire 1 P# b $end
$var wire 1 Q# cin $end
$var wire 1 R# cout $end
$var wire 1 S# sum $end
$upscope $end
$upscope $end
$upscope $end
$scope begin FA_BITS[22] $end
$var parameter 6 T# i $end
$scope begin genblk1 $end
$scope module FA $end
$var wire 1 U# a $end
$var wire 1 V# ab $end
$var wire 1 W# axb $end
$var wire 1 X# axbcin $end
$var wire 1 Y# b $end
$var wire 1 Z# cin $end
$var wire 1 [# cout $end
$var wire 1 \# sum $end
$upscope $end
$upscope $end
$upscope $end
$scope begin FA_BITS[23] $end
$var parameter 6 ]# i $end
$scope begin genblk1 $end
$scope module FA $end
$var wire 1 ^# a $end
$var wire 1 _# ab $end
$var wire 1 `# axb $end
$var wire 1 a# axbcin $end
$var wire 1 b# b $end
$var wire 1 c# cin $end
$var wire 1 d# cout $end
$var wire 1 e# sum $end
$upscope $end
$upscope $end
$upscope $end
$scope begin FA_BITS[24] $end
$var parameter 6 f# i $end
$scope begin genblk1 $end
$scope module FA $end
$var wire 1 g# a $end
$var wire 1 h# ab $end
$var wire 1 i# axb $end
$var wire 1 j# axbcin $end
$var wire 1 k# b $end
$var wire 1 l# cin $end
$var wire 1 m# cout $end
$var wire 1 n# sum $end
$upscope $end
$upscope $end
$upscope $end
$scope begin FA_BITS[25] $end
$var parameter 6 o# i $end
$scope begin genblk1 $end
$scope module FA $end
$var wire 1 p# a $end
$var wire 1 q# ab $end
$var wire 1 r# axb $end
$var wire 1 s# axbcin $end
$var wire 1 t# b $end
$var wire 1 u# cin $end
$var wire 1 v# cout $end
$var wire 1 w# sum $end
$upscope $end
$upscope $end
$upscope $end
$scope begin FA_BITS[26] $end
$var parameter 6 x# i $end
$scope begin genblk1 $end
$scope module FA $end
$var wire 1 y# a $end
$var wire 1 z# ab $end
$var wire 1 {# axb $end
$var wire 1 |# axbcin $end
$var wire 1 }# b $end
$var wire 1 ~# cin $end
$var wire 1 !$ cout $end
$var wire 1 "$ sum $end
$upscope $end
$upscope $end
$upscope $end
$scope begin FA_BITS[27] $end
$var parameter 6 #$ i $end
$scope begin genblk1 $end
$scope module FA $end
$var wire 1 $$ a $end
$var wire 1 %$ ab $end
$var wire 1 &$ axb $end
$var wire 1 '$ axbcin $end
$var wire 1 ($ b $end
$var wire 1 )$ cin $end
$var wire 1 *$ cout $end
$var wire 1 +$ sum $end
$upscope $end
$upscope $end
$upscope $end
$scope begin FA_BITS[28] $end
$var parameter 6 ,$ i $end
$scope begin genblk1 $end
$scope module FA $end
$var wire 1 -$ a $end
$var wire 1 .$ ab $end
$var wire 1 /$ axb $end
$var wire 1 0$ axbcin $end
$var wire 1 1$ b $end
$var wire 1 2$ cin $end
$var wire 1 3$ cout $end
$var wire 1 4$ sum $end
$upscope $end
$upscope $end
$upscope $end
$scope begin FA_BITS[29] $end
$var parameter 6 5$ i $end
$scope begin genblk1 $end
$scope module FA $end
$var wire 1 6$ a $end
$var wire 1 7$ ab $end
$var wire 1 8$ axb $end
$var wire 1 9$ axbcin $end
$var wire 1 :$ b $end
$var wire 1 ;$ cin $end
$var wire 1 <$ cout $end
$var wire 1 =$ sum $end
$upscope $end
$upscope $end
$upscope $end
$scope begin FA_BITS[30] $end
$var parameter 6 >$ i $end
$scope begin genblk1 $end
$scope module FA $end
$var wire 1 ?$ a $end
$var wire 1 @$ ab $end
$var wire 1 A$ axb $end
$var wire 1 B$ axbcin $end
$var wire 1 C$ b $end
$var wire 1 D$ cin $end
$var wire 1 E$ cout $end
$var wire 1 F$ sum $end
$upscope $end
$upscope $end
$upscope $end
$scope begin FA_BITS[31] $end
$var parameter 6 G$ i $end
$scope begin genblk1 $end
$scope module FA $end
$var wire 1 H$ a $end
$var wire 1 I$ ab $end
$var wire 1 J$ axb $end
$var wire 1 K$ axbcin $end
$var wire 1 L$ b $end
$var wire 1 M$ cin $end
$var wire 1 N$ cout $end
$var wire 1 O$ sum $end
$upscope $end
$upscope $end
$upscope $end
$upscope $end
$scope module TC $end
$var wire 32 P$ in [31:0] $end
$var wire 32 Q$ out [31:0] $end
$upscope $end
$upscope $end
$scope module C $end
$var wire 32 R$ ALU_dat1 [31:0] $end
$var wire 32 S$ ALU_dat2 [31:0] $end
$var wire 5 T$ Instruction_to_ALU [4:0] $end
$var reg 1 4 Comparator_con_met $end
$var reg 32 U$ Comparator_out [31:0] $end
$upscope $end
$scope module LO $end
$var wire 32 V$ ALU_dat1 [31:0] $end
$var wire 32 W$ ALU_dat2 [31:0] $end
$var wire 5 X$ Instruction_to_ALU [4:0] $end
$var wire 1 Y$ dat_ready $end
$var wire 1 Z$ reset $end
$var wire 1 [$ soc_clk $end
$var reg 32 \$ LogOp_out [31:0] $end
$upscope $end
$scope module S $end
$var wire 32 ]$ ALU_dat1 [31:0] $end
$var wire 32 ^$ ALU_dat2 [31:0] $end
$var wire 5 _$ Instruction_to_ALU [4:0] $end
$var reg 32 `$ Shifter_out [31:0] $end
$upscope $end
$upscope $end
$scope task testsequence $end
$var reg 1 a$ exp_con $end
$var reg 32 b$ exp_out [31:0] $end
$var reg 1 c$ exp_ovf $end
$var reg 1 d$ exp_zero $end
$var reg 32 e$ in1 [31:0] $end
$var reg 32 f$ in2 [31:0] $end
$var reg 6 g$ instr [5:0] $end
$var reg 256 h$ name [255:0] $end
$upscope $end
$upscope $end
$enddefinitions $end
$comment Show the parameter values. $end
$dumpall
b11111 G$
b11110 >$
b11101 5$
b11100 ,$
b11011 #$
b11010 x#
b11001 o#
b11000 f#
b10111 ]#
b10110 T#
b10101 K#
b10100 B#
b10011 9#
b10010 0#
b10001 '#
b10000 |"
b1111 s"
b1110 j"
b1101 a"
b1100 X"
b1011 O"
b1010 F"
b1001 ="
b1000 4"
b111 +"
b110 ""
b101 w
b100 n
b11 e
b10 \
b1 S
b0 J
$end
#0
$dumpvars
bx h$
bx g$
bx f$
bx e$
xd$
xc$
bx b$
xa$
bx `$
bx _$
bx ^$
bx ]$
bx \$
z[$
zZ$
zY$
bx X$
bx W$
bx V$
bx U$
bx T$
bx S$
bx R$
bx Q$
bx P$
xO$
xN$
xM$
xL$
xK$
xJ$
xI$
xH$
xF$
xE$
xD$
xC$
xB$
xA$
x@$
x?$
x=$
x<$
x;$
x:$
x9$
x8$
x7$
x6$
x4$
x3$
x2$
x1$
x0$
x/$
x.$
x-$
x+$
x*$
x)$
x($
x'$
x&$
x%$
x$$
x"$
x!$
x~#
x}#
x|#
x{#
xz#
xy#
xw#
xv#
xu#
xt#
xs#
xr#
xq#
xp#
xn#
xm#
xl#
xk#
xj#
xi#
xh#
xg#
xe#
xd#
xc#
xb#
xa#
x`#
x_#
x^#
x\#
x[#
xZ#
xY#
xX#
xW#
xV#
xU#
xS#
xR#
xQ#
xP#
xO#
xN#
xM#
xL#
xJ#
xI#
xH#
xG#
xF#
xE#
xD#
xC#
xA#
x@#
x?#
x>#
x=#
x<#
x;#
x:#
x8#
x7#
x6#
x5#
x4#
x3#
x2#
x1#
x/#
x.#
x-#
x,#
x+#
x*#
x)#
x(#
x&#
x%#
x$#
x##
x"#
x!#
x~"
x}"
x{"
xz"
xy"
xx"
xw"
xv"
xu"
xt"
xr"
xq"
xp"
xo"
xn"
xm"
xl"
xk"
xi"
xh"
xg"
xf"
xe"
xd"
xc"
xb"
x`"
x_"
x^"
x]"
x\"
x["
xZ"
xY"
xW"
xV"
xU"
xT"
xS"
xR"
xQ"
xP"
xN"
xM"
xL"
xK"
xJ"
xI"
xH"
xG"
xE"
xD"
xC"
xB"
xA"
x@"
x?"
x>"
x<"
x;"
x:"
x9"
x8"
x7"
x6"
x5"
x3"
x2"
x1"
x0"
x/"
x."
x-"
x,"
x*"
x)"
x("
x'"
x&"
x%"
x$"
x#"
x!"
x~
x}
x|
x{
xz
xy
xx
xv
xu
xt
xs
xr
xq
xp
xo
xm
xl
xk
xj
xi
xh
xg
xf
xd
xc
xb
xa
x`
x_
x^
x]
x[
xZ
xY
xX
xW
xV
xU
xT
xR
xQ
0P
xO
0N
xM
xL
xK
bx I
bx H
bx G
bx F
bx E
bx D
bx C
bx B
zA
z@
bx ?
bx >
bx =
bx <
bx ;
bx :
bx 9
bx 8
bx 7
bx 6
x5
x4
bx 3
bx 2
bx 1
b0 0
b0 /
b0 .
0-
1,
0+
b0 *
b0 )
b0 (
x'
x&
x%
bx $
x#
x"
x!
$end
#5000
0d
0m
0v
0!"
0*"
03"
0<"
0E"
0N"
0W"
0`"
0i"
0r"
0{"
0&#
0/#
08#
0A#
0J#
0S#
0\#
0e#
0n#
0w#
0"$
0+$
04$
0=$
0F$
0O$
0[
0b
0k
0t
0}
0("
01"
0:"
0C"
0L"
0U"
0^"
0g"
0p"
0y"
0$#
0-#
06#
0?#
0H#
0Q#
0Z#
0c#
0l#
0u#
0~#
0)$
02$
0;$
0D$
0M$
b0 6
b0 D
0Y
0Z
0c
0l
0u
0~
0)"
02"
0;"
0D"
0M"
0V"
0_"
0h"
0q"
0z"
0%#
0.#
07#
0@#
0I#
0R#
0[#
0d#
0m#
0v#
0!$
0*$
03$
0<$
0E$
0N$
b0 E
b0 I
0R
b0 H
0Q
0W
0`
0i
0r
0{
0&"
0/"
08"
0A"
0J"
0S"
0\"
0e"
0n"
0w"
0"#
0+#
04#
0=#
0F#
0O#
0X#
0a#
0j#
0s#
0|#
0'$
00$
09$
0B$
0K$
0M
0L
0V
0U
0_
0^
0h
0g
0q
0p
0z
0y
0%"
0$"
0."
0-"
07"
06"
0@"
0?"
0I"
0H"
0R"
0Q"
0["
0Z"
0d"
0c"
0m"
0l"
0v"
0u"
0!#
0~"
0*#
0)#
03#
02#
0<#
0;#
0E#
0D#
0N#
0M#
0W#
0V#
0`#
0_#
0i#
0h#
0r#
0q#
0{#
0z#
0&$
0%$
0/$
0.$
08$
07$
0A$
0@$
0J$
0I$
0O
0X
0a
0j
0s
0|
0'"
00"
09"
0B"
0K"
0T"
0]"
0f"
0o"
0x"
0##
0,#
05#
0>#
0G#
0P#
0Y#
0b#
0k#
0t#
0}#
0($
01$
0:$
0C$
0L$
b0 B
b0 Q$
0K
0T
0]
0f
0o
0x
0#"
0,"
05"
0>"
0G"
0P"
0Y"
0b"
0k"
0t"
0}"
0(#
01#
0:#
0C#
0L#
0U#
0^#
0g#
0p#
0y#
0$$
0-$
06$
0?$
0H$
b0 C
b0 G
05
b0 1
b0 `$
b0 2
b0 \$
b0 3
b0 U$
04
0%
b0 ;
b0 =
b0 P$
b0 S$
b0 W$
b0 ^$
b0 ?
b0 F
b0 :
b0 <
b0 R$
b0 V$
b0 ]$
b10000 9
b10000 >
b10000 T$
b10000 X$
b10000 _$
0&
0!
0#
b0 $
b0 7
0"
1'
b0 8
1-
#10000
0-
#15000
0,
1-
#20000
0-
#25000
b11011 *
b11011 0
b101 )
b101 /
b1010 (
b1010 .
0'
b1 8
0a$
0c$
0d$
b1111 b$
b11011 g$
b101 f$
b1010 e$
b1000001010001000100010000100000001010000011000100110000001010110011010100101001 h$
1-
#30000
0-
#35000
1R
1d
1M
1_
b1111 6
b1111 D
1O
1a
1[
b1111 E
b1111 I
1m
b101 C
b101 G
1V
1h
b11111111111111111111111111111011 B
b11111111111111111111111111111011 Q$
1T
1f
b10 8
b110 9
b110 >
b110 T$
b110 X$
b110 _$
b101 ;
b101 =
b101 P$
b101 S$
b101 W$
b101 ^$
b1010 ?
b1010 F
b1010 :
b1010 <
b1010 R$
b1010 V$
b1010 ]$
1-
#40000
0-
#45000
1"
b1111 $
b1111 7
b11 8
1-
#50000
0-
#55000
1'
b0 8
0"
1-
#60000
0-
#65000
b11100 *
b11100 0
0'
b1 8
b101 b$
b11100 g$
b1010011010101010100001000100000001010000011000100110000001011010011010100101001 h$
1-
#70000
0-
#75000
1N$
1K$
1M$
1E$
1B$
1D$
1<$
19$
1;$
13$
10$
12$
1*$
1'$
1)$
1!$
1|#
1~#
1v#
1s#
1u#
1m#
1j#
1l#
1d#
1a#
1c#
1[#
1X#
1Z#
1R#
1O#
1Q#
1I#
1F#
1H#
1@#
1=#
1?#
17#
14#
16#
1.#
1+#
1-#
1%#
1"#
1$#
1z"
1w"
1y"
1q"
1n"
1p"
1h"
1e"
1g"
1_"
1\"
1^"
1V"
1S"
1U"
1M"
1J"
1L"
1D"
1A"
1C"
1;"
18"
1:"
12"
1/"
11"
1)"
1&"
1("
1~
1{
1}
1u
1r
1b
1t
b101 6
b101 D
0[
1Z
1d
0m
b11111111111111111111111111111010 H
1l
0v
0!"
0*"
03"
0<"
0E"
0N"
0W"
0`"
0i"
0r"
0{"
0&#
0/#
08#
0A#
0J#
0S#
0\#
0e#
0n#
0w#
0"$
0+$
04$
0=$
0F$
b100000000000000000000000000000101 E
b100000000000000000000000000000101 I
0O$
0V
1U
0_
0h
1g
1q
1z
1%"
1."
17"
1@"
1I"
1R"
1["
1d"
1m"
1v"
1!#
1*#
13#
1<#
1E#
1N#
1W#
1`#
1i#
1r#
1{#
1&$
1/$
18$
1A$
1J$
1X
0a
1j
1s
1|
1'"
10"
19"
1B"
1K"
1T"
1]"
1f"
1o"
1x"
1##
1,#
15#
1>#
1G#
1P#
1Y#
1b#
1k#
1t#
1}#
1($
11$
1:$
1C$
1L$
b11111111111111111111111111111011 C
b11111111111111111111111111111011 G
b10 8
b111 9
b111 >
b111 T$
b111 X$
b111 _$
1-
#80000
0-
#85000
1"
b101 $
b101 7
b11 8
1-
#90000
0-
#95000
1'
b0 8
0"
1-
#100000
0-
#105000
b1010 )
b1010 /
b101 (
b101 .
0'
b1 8
b11111111111111111111111111111011 b$
b1010 f$
b101 e$
b1010011010101010100001000100000001010000011010100101101001100010011000000101001 h$
1-
#110000
0-
#115000
0N$
1O$
0K$
0M$
0E$
1F$
0B$
0D$
0<$
1=$
09$
0;$
03$
14$
00$
02$
0*$
1+$
0'$
0)$
0!$
1"$
0|#
0~#
0v#
1w#
0s#
0u#
0m#
1n#
0j#
0l#
0d#
1e#
0a#
0c#
0[#
1\#
0X#
0Z#
0R#
1S#
0O#
0Q#
0I#
1J#
0F#
0H#
0@#
1A#
0=#
0?#
07#
18#
04#
06#
0.#
1/#
0+#
0-#
0%#
1&#
0"#
0$#
0z"
1{"
0w"
0y"
0q"
1r"
0n"
0p"
0h"
1i"
0e"
0g"
0_"
1`"
0\"
0^"
0V"
1W"
0S"
0U"
0M"
1N"
0J"
0L"
0D"
1E"
0A"
0C"
0;"
1<"
08"
0:"
02"
13"
0/"
01"
0)"
1*"
0&"
0("
0~
1!"
0{
0}
0u
0W
1k
1v
0r
1^
0Y
0b
1c
b11111111111111111111111111111011 6
b11111111111111111111111111111011 D
0t
0O
1a
0j
1R
0Q
1[
0Z
0d
0`
b11111111111111111111111111111011 E
b11111111111111111111111111111011 I
1m
b100 H
0l
b11111111111111111111111111110110 C
b11111111111111111111111111110110 G
1M
0L
1V
0U
0_
0h
0g
b11111111111111111111111111110110 B
b11111111111111111111111111110110 Q$
1K
0T
1]
0f
b10 8
b1010 ;
b1010 =
b1010 P$
b1010 S$
b1010 W$
b1010 ^$
b101 ?
b101 F
b101 :
b101 <
b101 R$
b101 V$
b101 ]$
1-
#120000
0-
#125000
1"
b11111111111111111111111111111011 $
b11111111111111111111111111111011 7
b11 8
1-
#130000
0-
#135000
1'
b0 8
0"
1-
#140000
0-
#145000
b11101 *
b11101 0
b10 )
b10 /
b1 (
b1 .
0'
b1 8
b100 b$
b11101 g$
b10 f$
b1 e$
b1010011010011000100110000100000001010000011000100111100001111000011001000101001 h$
1-
#150000
0-
#155000
0m
0[
0v
0!"
0*"
03"
0<"
0E"
0N"
0W"
0`"
0i"
0r"
0{"
0&#
0/#
08#
0A#
0J#
0S#
0\#
0e#
0n#
0w#
0"$
0+$
04$
0=$
0F$
0O$
b1 6
b1 D
0k
0V
0q
0z
0%"
0."
07"
0@"
0I"
0R"
0["
0d"
0m"
0v"
0!#
0*#
03#
0<#
0E#
0N#
0W#
0`#
0i#
0r#
0{#
0&$
0/$
08$
0A$
0J$
b1 E
b1 I
0d
b0 H
0c
0X
0a
0s
0|
0'"
00"
09"
0B"
0K"
0T"
0]"
0f"
0o"
0x"
0##
0,#
05#
0>#
0G#
0P#
0Y#
0b#
0k#
0t#
0}#
0($
01$
0:$
0C$
0L$
0_
0^
b0 C
b0 G
b11111111111111111111111111111110 B
b11111111111111111111111111111110 Q$
0]
b100 1
b100 `$
b10 8
b1000 9
b1000 >
b1000 T$
b1000 X$
b1000 _$
b10 ;
b10 =
b10 P$
b10 S$
b10 W$
b10 ^$
b1 ?
b1 F
b1 :
b1 <
b1 R$
b1 V$
b1 ]$
1-
#160000
0-
#165000
1"
b100 $
b100 7
b11 8
1-
#170000
0-
#175000
1'
b0 8
0"
1-
#180000
0-
#185000
b100001 *
b100001 0
b1000 (
b1000 .
0'
b1 8
b10 b$
b100001 g$
b1000 e$
b1010011010100100100110000100000001010000011100000111110001111100011001000101001 h$
1-
#190000
0-
#195000
b1000 6
b1000 D
0R
b1000 E
b1000 I
1m
0M
1h
0K
1f
b10 1
b10 `$
b10 8
b1100 9
b1100 >
b1100 T$
b1100 X$
b1100 _$
b1000 ?
b1000 F
b1000 :
b1000 <
b1000 R$
b1000 V$
b1000 ]$
1-
#200000
0-
#205000
1"
b10 $
b10 7
b11 8
1-
#210000
0-
#215000
1'
b0 8
0"
1-
#220000
0-
#225000
b100010 *
b100010 0
b11111111111111111111111111111000 (
b11111111111111111111111111111000 .
0'
b1 8
b11111111111111111111111111111110 b$
b100010 g$
b11111111111111111111111111111000 e$
b10100110101001001000001001000000010100000101101001110000011111000111110001111100011001000101001 h$
1-
#230000
0-
#235000
b11111111111111111111111111111000 6
b11111111111111111111111111111000 D
1v
1!"
1*"
13"
1<"
1E"
1N"
1W"
1`"
1i"
1r"
1{"
1&#
1/#
18#
1A#
1J#
1S#
1\#
1e#
1n#
1w#
1"$
1+$
14$
1=$
1F$
b11111111111111111111111111111000 E
b11111111111111111111111111111000 I
1O$
1q
1z
1%"
1."
17"
1@"
1I"
1R"
1["
1d"
1m"
1v"
1!#
1*#
13#
1<#
1E#
1N#
1W#
1`#
1i#
1r#
1{#
1&$
1/$
18$
1A$
1J$
1o
1x
1#"
1,"
15"
1>"
1G"
1P"
1Y"
1b"
1k"
1t"
1}"
1(#
11#
1:#
1C#
1L#
1U#
1^#
1g#
1p#
1y#
1$$
1-$
16$
1?$
1H$
b11111111111111111111111111111110 1
b11111111111111111111111111111110 `$
b10 8
b1101 9
b1101 >
b1101 T$
b1101 X$
b1101 _$
b11111111111111111111111111111000 ?
b11111111111111111111111111111000 F
b11111111111111111111111111111000 :
b11111111111111111111111111111000 <
b11111111111111111111111111111000 R$
b11111111111111111111111111111000 V$
b11111111111111111111111111111000 ]$
1-
#240000
0-
#245000
1"
b11111111111111111111111111111110 $
b11111111111111111111111111111110 7
b11 8
1-
#250000
0-
#255000
1'
b0 8
0"
1-
#260000
0-
#265000
b100000 *
b100000 0
b1111 )
b1111 /
b11110000 (
b11110000 .
0'
b1 8
b11111111 b$
b100000 g$
b1111 f$
b11110000 e$
b101100001001111010100100010000000101000010001100011000001011110001100000100011000101001 h$
1-
#270000
0-
